 0.000   0.0000000
 0.020  -0.0146700
 0.040   0.0308600
 0.060   0.0289600
 0.080  -0.0022700
 0.100   0.0257500
 0.120   0.0700600
 0.140   0.0382900
 0.160  -0.0618600
 0.180   0.0039000
 0.200   0.0015600
 0.220  -0.0068100
 0.240   0.0127200
 0.260  -0.0316700
 0.280   0.0010300
 0.300  -0.0024200
 0.320  -0.0301500
 0.340  -0.1062400
 0.360  -0.0757100
 0.380  -0.0000100
 0.400  -0.0583000
 0.420  -0.0363900
 0.440   0.0235800
 0.460  -0.0554200
 0.480  -0.1094000
 0.500  -0.1047400
 0.520  -0.0636100
 0.540   0.0426700
 0.560   0.0102200
 0.580  -0.1748100
 0.600   0.1670700
 0.620   0.2455500
 0.640  -0.0471100
 0.660  -0.0256300
 0.680  -0.0281400
 0.700   0.0037300
 0.720  -0.0904600
 0.740  -0.0841900
 0.760  -0.0483600
 0.780  -0.0998500
 0.800  -0.1526100
 0.820  -0.0930200
 0.840  -0.0478600
 0.860  -0.1353300
 0.880  -0.2377500
 0.900  -0.2827900
 0.920  -0.1533000
 0.940  -0.0925600
 0.960  -0.1341300
 0.980  -0.1911400
 1.000  -0.1280200
 1.020  -0.1493900
 1.040  -0.0904300
 1.060   0.0706700
 1.080  -0.0376900
 1.100  -0.1501200
 1.120  -0.0344900
 1.140   0.0834300
 1.160  -0.0261900
 1.180   0.0592900
 1.200   0.0445700
 1.220  -0.0228100
 1.240  -0.0791700
 1.260   0.0323900
 1.280  -0.0794100
 1.300  -0.3725500
 1.320  -0.0210600
 1.340  -0.3427600
 1.360  -0.2660500
 1.380   0.1409500
 1.400  -0.1392600
 1.420  -0.2090100
 1.440  -0.1282100
 1.460   0.3006700
 1.480   0.2289200
 1.500   0.1120500
 1.520   0.2031200
 1.540  -0.1176500
 1.560  -0.0182900
 1.580   0.1121400
 1.600  -0.3302800
 1.620  -0.3097100
 1.640  -0.1444500
 1.660  -0.3960400
 1.680  -0.2805100
 1.700  -0.2222400
 1.720  -0.0428400
 1.740   0.1818000
 1.760   0.0828600
 1.780   0.0210500
 1.800  -0.1133400
 1.820  -0.2340700
 1.840  -0.3198300
 1.860  -0.4608200
 1.880  -0.6165900
 1.900  -0.6039100
 1.920  -0.6033500
 1.940  -0.3990400
 1.960  -0.0512300
 1.980   0.0482800
 2.000   0.1462600
 2.020  -0.0370300
 2.040  -0.0267700
 2.060   0.3400800
 2.080   0.3959200
 2.100   0.4707000
 2.120   0.2726900
 2.140  -0.2671300
 2.160  -0.2942700
 2.180  -0.1813600
 2.200  -0.3785300
 2.220  -0.1767000
 2.240   0.2260300
 2.260   0.2244700
 2.280   0.3970600
 2.300   0.3285900
 2.320   0.2081300
 2.340   0.4618400
 2.360   0.1678600
 2.380   0.0448000
 2.400   0.4757400
 2.420   0.2361400
 2.440  -0.2160700
 2.460  -0.2287800
 2.480  -0.0316300
 2.500  -0.0818500
 2.520  -0.0955600
 2.540   0.3663500
 2.560   0.3885800
 2.580   0.0972000
 2.600   0.0671100
 2.620   0.0499100
 2.640   0.0504500
 2.660  -0.2979500
 2.680  -0.8569500
 2.700  -1.0621500
 2.720  -1.2024100
 2.740  -1.4013700
 2.760  -1.4527000
 2.780  -1.4428200
 2.800  -1.5573900
 2.820  -1.6149300
 2.840  -1.4295600
 2.860  -1.3722300
 2.880  -0.9915000
 2.900   0.9301400
 2.920   1.9782400
 2.940   2.7108000
 2.960   4.1818000
 2.980   5.7416900
 3.000   4.6244500
 3.020   1.5653400
 3.040   1.7044100
 3.060   2.5257000
 3.080   2.5471100
 3.100   2.9377300
 3.120   2.9629200
 3.140   1.8422600
 3.160   1.4238300
 3.180   1.4300200
 3.200   1.3037300
 3.220   1.2846500
 3.240   0.8580200
 3.260  -0.1881600
 3.280  -2.0650300
 3.300  -2.4956400
 3.320  -1.1326200
 3.340  -0.5909900
 3.360  -1.6410900
 3.380  -2.8009700
 3.400  -3.4223700
 3.420  -4.5160400
 3.440  -5.7813500
 3.460  -5.6732900
 3.480  -3.5142000
 3.500  -1.8531900
 3.520  -1.6566600
 3.540  -1.8366400
 3.560  -1.3452100
 3.580  -0.4664900
 3.600   0.7043000
 3.620   1.8702200
 3.640   2.9640600
 3.660   3.5882200
 3.680   0.8345000
 3.700   0.7542000
 3.720   2.8809100
 3.740   3.4627500
 3.760   4.4246500
 3.780   3.3781600
 3.800   1.8638700
 3.820   2.5158200
 3.840   3.0863200
 3.860   2.6397300
 3.880   1.7044900
 3.900   0.5523000
 3.920  -0.2720600
 3.940  -1.6625900
 3.960  -2.8292300
 3.980  -3.8368500
 4.000  -1.2603000
 4.020   1.5854700
 4.040  -0.6518200
 4.060  -1.2612400
 4.080  -0.1289900
 4.100  -0.1479400
 4.120  -0.7195600
 4.140  -1.5383000
 4.160  -1.8319700
 4.180  -1.8623500
 4.200  -1.9946700
 4.220  -1.6909700
 4.240  -1.7503500
 4.260  -1.9605500
 4.280  -1.4763000
 4.300  -1.5499900
 4.320  -1.6972500
 4.340  -0.5203500
 4.360   0.0856600
 4.380   0.0293700
 4.400   0.6014100
 4.420   0.7603700
 4.440   1.9527700
 4.460   2.8836700
 4.480   4.1751600
 4.500   3.2317900
 4.520  -1.2123800
 4.540  -0.1249600
 4.560   0.8836300
 4.580  -0.2251900
 4.600  -0.4918600
 4.620  -0.8312400
 4.640  -0.7475800
 4.660   0.2162700
 4.680   1.1353500
 4.700   1.0659000
 4.720   1.2279900
 4.740   0.8306400
 4.760  -0.2380600
 4.780  -1.4961500
 4.800  -1.7613700
 4.820  -1.2161900
 4.840  -1.5419200
 4.860  -1.6158000
 4.880  -1.3110400
 4.900  -1.8507300
 4.920  -2.2520700
 4.940  -2.2322300
 4.960  -0.2524100
 4.980   0.6811100
 5.000   0.0239900
 5.020   0.6998200
 5.040   1.3601300
 5.060   0.8110100
 5.080   0.6373600
 5.100   1.0677200
 5.120   0.8570800
 5.140   0.9540900
 5.160   1.2221900
 5.180   1.5969000
 5.200   1.4357700
 5.220   0.8230800
 5.240   0.6859700
 5.260   0.1171300
 5.280   0.0918100
 5.300  -0.0830100
 5.320  -1.0985100
 5.340  -0.7256000
 5.360  -0.2400400
 5.380  -0.8194100
 5.400  -1.1641600
 5.420  -1.2395100
 5.440  -1.3005900
 5.460  -0.2804500
 5.480  -0.0253600
 5.500  -0.1236900
 5.520   0.4577000
 5.540   0.8795100
 5.560   1.0916800
 5.580   1.2101300
 5.600   1.0703100
 5.620   0.8095700
 5.640   0.0257600
 5.660  -0.8188500
 5.680  -0.8298900
 5.700   0.0450800
 5.720   0.5451600
 5.740  -0.4131900
 5.760  -0.7089400
 5.780  -0.6860000
 5.800  -0.4734300
 5.820  -0.2860800
 5.840  -0.3747000
 5.860   0.1335000
 5.880   0.2976800
 5.900   0.1060300
 5.920   0.4167400
 5.940   1.1028800
 5.960   1.0567600
 5.980   1.0775100
 6.000   0.7575700
 6.020  -0.6486500
 6.040  -0.9195100
 6.060  -0.6428000
 6.080   0.5012700
 6.100   1.8116100
 6.120   1.4003800
 6.140   0.4390800
 6.160   0.0022200
 6.180   0.8966300
 6.200   1.3336800
 6.220   0.5552000
 6.240   0.6835700
 6.260   1.1457700
 6.280   1.1580700
 6.300   1.0302200
 6.320   0.7239100
 6.340   0.7082400
 6.360   0.6562400
 6.380  -0.1884400
 6.400  -0.8541600
 6.420  -1.1184300
 6.440  -1.6174000
 6.460  -2.2380700
 6.480  -2.5177000
 6.500  -2.2965300
 6.520  -1.5344200
 6.540  -1.1751800
 6.560  -0.9286500
 6.580   1.0191400
 6.600   1.5159500
 6.620   1.6777900
 6.640   2.8277400
 6.660   3.2554000
 6.680   2.2783600
 6.700   0.7086200
 6.720   0.1674900
 6.740  -0.5557400
 6.760  -0.7432900
 6.780  -1.3423400
 6.800  -1.8300500
 6.820  -1.1895800
 6.840  -0.9163900
 6.860  -0.5066800
 6.880   0.1924600
 6.900   0.8915000
 6.920   1.1664300
 6.940   0.5726100
 6.960   0.1424300
 6.980   0.5053000
 7.000  -0.1635700
 7.020  -1.0810200
 7.040  -1.2424200
 7.060  -0.7735900
 7.080   0.8680500
 7.100   0.9474300
 7.120   0.4655100
 7.140  -0.2213800
 7.160  -0.8206400
 7.180  -0.9248200
 7.200  -1.2723500
 7.220  -1.4085200
 7.240  -1.5155500
 7.260  -1.4195900
 7.280  -1.1982200
 7.300  -0.7653200
 7.320  -0.6731700
 7.340  -0.8139400
 7.360  -1.2250200
 7.380  -1.4768100
 7.400  -1.4061400
 7.420  -0.6726000
 7.440  -0.3878700
 7.460  -0.3812000
 7.480   0.0133000
 7.500   0.7081100
 7.520   0.9434000
 7.540   1.1136200
 7.560   1.3169300
 7.580   2.0358000
 7.600   1.0124500
 7.620  -1.2510700
 7.640  -0.5852200
 7.660  -0.5945300
 7.680  -0.9767300
 7.700  -0.9533700
 7.720  -1.0984100
 7.740  -0.7976000
 7.760  -0.2466700
 7.780   0.3064300
 7.800  -0.3931600
 7.820  -1.4640300
 7.840  -1.2096300
 7.860  -1.1421500
 7.880  -0.3063900
 7.900   0.2394600
 7.920   0.1666100
 7.940   0.4309800
 7.960   0.2958300
 7.980   0.3194600
 8.000   0.6816600
 8.020   0.9249000
 8.040   1.2878500
 8.060   0.8378900
 8.080  -0.1950200
 8.100   0.5153000
 8.120   1.2116600
 8.140   1.3669400
 8.160   1.4386700
 8.180   1.7143600
 8.200   1.9154600
 8.220   1.6927200
 8.240   1.6513500
 8.260   1.3502500
 8.280   0.8966200
 8.300   0.5471600
 8.320   0.0947800
 8.340  -0.0733500
 8.360  -0.0252600
 8.380  -0.0754200
 8.400  -0.3589900
 8.420  -0.8969600
 8.440  -1.3600900
 8.460  -1.7813600
 8.480  -0.5701700
 8.500   0.0213200
 8.520  -1.1532500
 8.540  -1.4423700
 8.560  -1.4080800
 8.580  -1.5615800
 8.600  -2.0020800
 8.620  -1.6049600
 8.640   0.1794600
 8.660   0.4934000
 8.680  -0.1122600
 8.700  -0.1590600
 8.720  -0.3230200
 8.740  -0.1060100
 8.760   0.1300900
 8.780   0.3843700
 8.800   0.5228900
 8.820   1.1501900
 8.840   1.8034300
 8.860   2.7041200
 8.880   1.2715400
 8.900  -1.0132600
 8.920  -0.1807800
 8.940   0.2707000
 8.960  -0.1112000
 8.980  -0.3935600
 9.000  -0.2905600
 9.020  -0.3929500
 9.040  -0.4918200
 9.060  -0.6262300
 9.080  -0.6992200
 9.100   0.4948800
 9.120   1.4587300
 9.140   1.7137700
 9.160   2.4543300
 9.180   2.2238500
 9.200   0.5616200
 9.220   0.1251500
 9.240   0.0422300
 9.260   0.0638300
 9.280   0.5582700
 9.300   0.2227300
 9.320  -0.4378100
 9.340  -0.3851200
 9.360  -0.5389800
 9.380  -0.8207200
 9.400  -1.0633100
 9.420  -1.2182600
 9.440  -1.4419400
 9.460  -1.6582900
 9.480  -2.3540100
 9.500  -1.9064800
 9.520   1.1307300
 9.540   0.5748600
 9.560   0.3275200
 9.580   0.7040400
 9.600  -1.2881200
 9.620  -1.0927300
 9.640  -0.1394700
 9.660   0.2911700
 9.680   0.0549700
 9.700   0.1838300
 9.720   0.6855600
 9.740   1.2901200
 9.760   0.4015300
 9.780  -0.3184100
 9.800   0.4463100
 9.820   0.4388100
 9.840   0.0485500
 9.860  -0.3640000
 9.880  -0.2813100
 9.900  -0.0766600
 9.920  -0.0872100
 9.940  -0.6237300
 9.960  -0.8721100
 9.980  -0.8940300
10.000  -1.0372300
10.020  -0.3317100
10.040   0.2043000
10.060   0.0980900
10.080   0.3422200
10.100   0.5991000
10.120   0.5594500
10.140   0.5659800
10.160   0.4048300
10.180   0.0624800
10.200   0.2192600
10.220   0.5867800
10.240   0.5789800
10.260   0.6127100
10.280   0.9127500
10.300   1.1221000
10.320   0.8599600
10.340   0.2964200
10.360   0.3424400
10.380   0.4676900
10.400   0.1833500
10.420   0.1011300
10.440   0.1936200
10.460   0.1861500
10.480  -0.0814200
10.500  -0.3505900
10.520  -0.7540500
10.540  -1.0355900
10.560  -1.2574200
10.580  -0.7027400
10.600   0.3659500
10.620   0.1057500
10.640   0.0127700
10.660   0.2809300
10.680   0.0370600
10.700  -0.1728400
10.720   0.0309500
10.740   0.3735000
10.760   0.4655600
10.780   0.5044600
10.800   0.4574400
10.820   0.2040100
10.840   0.1670600
10.860   0.0189700
10.880  -0.1047700
10.900   0.1182300
10.920   0.1714100
10.940   0.2946400
10.960   0.4958400
10.980   0.3908100
11.000  -0.0622300
11.020  -0.2588200
11.040  -0.2157200
11.060  -0.1867400
11.080  -0.1544900
11.100  -0.2124800
11.120  -0.2334200
11.140  -0.1080500
11.160  -0.0534400
11.180  -0.1205900
11.200  -0.1037600
11.220   0.0731800
11.240  -0.1430900
11.260  -0.5968200
11.280  -0.6399600
11.300  -0.7149700
11.320  -0.7628400
11.340  -0.5752500
11.360  -0.4276700
11.380  -0.3599500
11.400  -0.1331200
11.420   0.1394900
11.440   0.1661100
11.460   0.1816800
11.480   0.3209300
11.500   0.4170200
11.520   0.4350000
11.540   0.3538500
11.560   0.3139300
11.580   0.2827000
11.600   0.2248300
11.620   0.1680900
11.640   0.1371200
11.660   0.0848200
11.680   0.1138500
11.700   0.0067300
11.720  -0.2900700
11.740  -0.4069000
11.760  -0.2064300
11.780   0.1192400
11.800   0.1154100
11.820   0.1338300
11.840   0.1771000
11.860   0.0775300
11.880  -0.0178800
11.900   0.0119700
11.920  -0.1323100
11.940  -0.3328500
11.960  -0.3075200
11.980  -0.2663200
12.000   0.2160800
12.020   0.6191200
12.040   0.6517000
12.060   0.7183900
12.080   0.7520300
12.100   0.6685100
12.120   0.4920100
12.140   0.3808200
12.160   0.0202800
12.180  -0.2685800
12.200  -0.3656400
12.220  -0.5106100
12.240  -0.5836300
12.260  -0.3608100
12.280   0.0224300
12.300   0.1599800
12.320   0.2647500
12.340   0.2655200
12.360   0.1514400
12.380   0.0834600
12.400  -0.1119700
12.420  -0.4117000
12.440  -0.5507600
12.460  -0.6055000
12.480  -0.6066000
12.500  -0.5050400
12.520  -0.4577100
12.540  -0.4620700
12.560  -0.4525500
12.580  -0.4024300
12.600  -0.2937500
12.620  -0.1523800
12.640  -0.0688300
12.660  -0.0723900
12.680  -0.0649700
12.700   0.0166700
12.720   0.1948400
12.740   0.2830700
12.760   0.3062200
12.780   0.1609600
12.800  -0.1028400
12.820  -0.1784300
12.840   0.0180600
12.860   0.1828000
12.880   0.2234500
12.900   0.2980500
12.920   0.3021100
12.940   0.1905800
12.960  -0.1259300
12.980  -0.3369300
13.000  -0.4210900
13.020  -0.4771900
13.040  -0.4266400
13.060  -0.1739400
13.080   0.1235900
13.100   0.1940400
13.120   0.2996600
13.140   0.4518100
13.160   0.4813900
13.180   0.3741000
13.200   0.1340700
13.220   0.0158900
13.240   0.0099800
13.260  -0.0077100
13.280   0.0567500
13.300   0.2531000
13.320   0.3185700
13.340   0.3476100
13.360   0.4450500
13.380   0.4648300
13.400   0.2493900
13.420  -0.0429400
13.440  -0.1810700
13.460  -0.3516300
13.480  -0.4498200
13.500  -0.3485700
13.520  -0.2268700
13.540  -0.1575200
13.560  -0.0917100
13.580   0.0009700
13.600   0.0991300
13.620   0.1555400
13.640   0.2259500
13.660   0.2611700
13.680   0.2499700
13.700   0.0522000
13.720  -0.0416200
13.740   0.0223500
13.760  -0.0449600
13.780  -0.1154000
13.800  -0.1269000
13.820  -0.1377600
13.840  -0.2346900
13.860  -0.3183700
13.880  -0.2819000
13.900   0.0068400
13.920   0.2806700
13.940   0.3862700
13.960   0.4530300
13.980   0.4683400
14.000   0.4365600
14.020   0.2211900
14.040   0.0853600
14.060   0.0416400
14.080  -0.1378300
14.100  -0.2465700
14.120  -0.2316400
14.140   0.0608100
14.160   0.3292700
14.180   0.2805300
14.200   0.1367600
14.220   0.0054200
14.240   0.0069400
14.260   0.0135300
14.280   0.0024500
14.300  -0.0463700
14.320  -0.2157900
14.340  -0.2623600
14.360  -0.2101800
14.380  -0.1549500
14.400  -0.1542300
14.420  -0.2738500
14.440  -0.2774100
14.460  -0.1626600
14.480   0.0062500
14.500   0.0930000
14.520   0.1085000
14.540   0.1650900
14.560   0.2014000
14.580  -0.0965600
14.600  -0.3302100
14.620  -0.3192700
14.640  -0.3213200
14.660  -0.2965400
14.680  -0.2827200
14.700  -0.3905300
14.720  -0.2689200
14.740   0.1488100
14.760   0.2495000
14.780   0.2003200
14.800  -0.0154400
14.820  -0.0520400
14.840   0.0403200
14.860  -0.2306600
14.880  -0.4035300
14.900  -0.3646000
14.920  -0.2806300
14.940  -0.0312900
14.960   0.0931000
14.980   0.0952100
15.000   0.1450500
15.020   0.1961500
15.040   0.1849400
15.060   0.1827600
15.080   0.1637900
15.100   0.1140400
15.120   0.1367400
15.140   0.2108800
15.160   0.1407000
15.180   0.0813300
15.200   0.0768300
15.220  -0.0456900
15.240  -0.1413500
15.260  -0.2312600
15.280  -0.2732300
15.300  -0.2707700
15.320  -0.0210900
15.340   0.1024100
15.360  -0.0604600
15.380  -0.1101600
15.400  -0.0052000
15.420   0.1550900
15.440   0.1146700
15.460  -0.1968300
15.480  -0.2361100
15.500  -0.0350700
15.520  -0.0237100
15.540   0.0033700
15.560  -0.0029000
15.580  -0.0066800
15.600   0.0093100
15.620  -0.0070800
15.640  -0.1558800
15.660  -0.0875300
15.680   0.1237900
15.700   0.0557100
15.720   0.0748100
15.740   0.1753300
15.760   0.0882300
15.780  -0.1177800
15.800  -0.1365200
15.820  -0.0946800
15.840  -0.0947700
15.860  -0.0429600
15.880  -0.0362600
15.900  -0.0819100
15.920   0.0033200
15.940   0.1119100
15.960   0.0784100
15.980   0.0755100
16.000   0.1430600
16.020   0.1539500
16.040   0.0721100
16.060  -0.0620400
16.080  -0.1055700
16.100  -0.0321900
16.120   0.0726000
16.140   0.1866600
16.160   0.2135400
16.180   0.2296100
16.200   0.2480100
16.220   0.2431500
16.240   0.2652700
16.260   0.3191200
16.280   0.4159200
16.300   0.4104500
16.320   0.4300800
16.340   0.2227900
16.360   0.0484100
16.380   0.1239100
16.400   0.0460500
16.420   0.0154700
16.440   0.0341100
16.460   0.0891200
16.480   0.1968500
16.500   0.1017200
16.520   0.0610600
16.540   0.2546700
16.560   0.4162200
16.580   0.5494000
16.600   0.5773400
16.620   0.4563900
16.640   0.5004200
16.660   0.7201500
16.680   0.8106200
16.700   0.6707500
16.720  -0.0536200
16.740  -0.4452400
16.760  -0.6717300
16.780  -1.5213700
16.800  -1.9694100
16.820  -2.4659700
16.840  -2.8113600
16.860  -2.9804100
16.880  -1.3905700
16.900  -0.0086200
16.920  -0.8500400
16.940  -0.5059700
16.960  -0.1503300
16.980  -0.1220900
17.000   0.1716800
17.020   0.2231100
17.040   0.0791300
17.060  -0.0329800
17.080   0.2259300
17.100   0.5192400
17.120   1.0680400
17.140   1.6658600
17.160   1.7770600
17.180   1.5241000
17.200   1.0877800
17.220   0.9378800
17.240   0.9973200
17.260   0.8926700
17.280   0.5851900
17.300   0.2506400
17.320  -0.0151900
17.340  -0.2015600
17.360  -0.2755600
17.380  -0.3655100
17.400  -0.4357600
17.420  -0.6229900
17.440  -0.9209600
17.460  -1.3081100
17.480  -1.6673100
17.500  -1.7602300
17.520  -1.5238100
17.540  -1.3334700
17.560  -1.2866800
17.580  -0.8553700
17.600  -0.5046800
17.620  -0.3938200
17.640  -0.1414600
17.660   0.0953500
17.680   0.3544500
17.700   0.7619700
17.720   1.0170100
17.740   1.1736200
17.760   1.3473200
17.780   1.3579100
17.800   1.2528100
17.820   1.1353400
17.840   1.1344900
17.860   0.8102000
17.880   0.4829600
17.900   0.4577100
17.920   0.2439700
17.940   0.0226600
17.960  -0.0621800
17.980  -0.1794500
18.000  -0.3919600
18.020  -0.6672700
18.040  -0.8143700
18.060  -0.9110600
18.080  -1.0113700
18.100  -1.0804200
18.120  -0.7395800
18.140  -0.2299800
18.160  -0.0926000
18.180   0.1520100
18.200   0.3971000
18.220   0.6036000
18.240   0.8879800
18.260   1.1280500
18.280   1.2663400
18.300   1.4896300
18.320   1.7116100
18.340   1.7576400
18.360   1.0210500
18.380   0.4424700
18.400   0.4287600
18.420  -0.0785700
18.440  -0.5226600
18.460  -0.7856700
18.480  -1.2493500
18.500  -1.5480100
18.520  -1.1003500
18.540  -0.8039500
18.560  -0.8611000
18.580  -0.8844300
18.600  -1.1328600
18.620  -1.0970100
18.640  -0.5515200
18.660  -0.3327700
18.680  -0.2784800
18.700  -0.1498100
18.720  -0.1213100
18.740  -0.0303400
18.760   0.2197800
18.780   0.5905500
18.800   0.9967600
18.820   1.1825900
18.840   0.8033000
18.860   0.8163800
18.880   1.0297400
18.900   0.6196900
18.920  -0.0309900
18.940  -0.3987200
18.960  -0.6066500
18.980  -0.6676000
19.000  -0.7334600
19.020  -1.0139300
19.040  -1.0761300
19.060  -1.0757900
19.080  -0.8957800
19.100  -0.2693000
19.120   0.2693000
19.140   0.4688500
19.160   0.5473100
19.180   0.4702300
19.200   0.4006100
19.220   0.2341900
19.240   0.1338800
19.260   0.2049000
19.280   0.4952700
19.300   0.7353500
19.320   0.8104100
19.340   0.8300200
19.360   0.3186700
19.380   0.3143400
19.400   0.5750900
19.420   0.6574300
19.440   0.6191900
19.460   0.4146600
19.480   0.2577300
19.500  -0.1891100
19.520  -0.6931600
19.540  -1.0563400
19.560  -1.0973400
19.580  -1.0380700
19.600  -1.1613600
19.620  -1.1935300
19.640  -0.6154200
19.660  -0.2166300
19.680  -0.3345400
19.700  -0.1816400
19.720   0.1399400
19.740   0.5800500
19.760   0.8889300
19.780   0.9620100
19.800   0.8193600
19.820   0.3914500
19.840   0.5282700
19.860   1.0027500
19.880   0.9437800
19.900   0.2042900
19.920  -0.0977300
19.940   0.1569000
19.960  -0.2896100
19.980  -0.5840700
20.000  -0.8008000
20.020  -0.8185100
20.040  -0.9434400
20.060  -0.9232800
20.080  -1.4890800
20.100  -1.0517900
20.120   1.0157800
20.140   0.9586100
20.160   0.8416100
20.180  -0.0114500
20.200  -0.2701100
20.220   0.9140200
20.240   1.3104200
20.260   1.3072000
20.280   1.2898000
20.300   1.4028500
20.320   0.8629400
20.340  -0.0534100
20.360  -0.1938000
20.380  -0.1491700
20.400  -0.2818900
20.420  -0.1489100
20.440  -0.2372000
20.460  -0.6964000
20.480  -1.1696600
20.500  -0.7914500
20.520  -0.4354000
20.540  -1.0140300
20.560  -0.8802300
20.580   0.0841000
20.600  -0.0841400
20.620  -0.6877400
20.640  -0.5279100
20.660  -0.2499000
20.680   0.0911100
20.700   1.0452400
20.720   1.3136300
20.740   0.8806900
20.760   0.8395600
20.780   0.2997200
20.800   0.1384700
20.820   0.7728600
20.840   1.3055700
20.860   1.2019600
20.880   1.2478400
20.900   0.6226500
20.920  -0.2152900
20.940  -0.3807800
20.960  -0.8188800
20.980  -0.9065600
21.000  -0.4716800
21.020  -0.3289500
21.040  -0.5577800
21.060  -0.8513400
21.080  -1.0937800
21.100  -1.2167500
21.120  -1.2497500
21.140  -1.1836800
21.160  -0.8319500
21.180  -0.2555300
21.200  -0.0834400
21.220  -0.0915000
21.240   0.2959100
21.260   0.8462000
21.280   1.6490800
21.300   2.2952000
21.320   2.4873100
21.340   1.8673300
21.360  -0.4439100
21.380  -0.5041300
21.400  -0.2455800
21.420  -1.2078300
21.440  -0.9069800
21.460   0.2614100
21.480  -0.0265000
21.500  -0.7615600
21.520  -0.4109500
21.540  -0.3170400
21.560  -0.1962700
21.580   0.1339000
21.600   0.1944500
21.620  -0.5850400
21.640  -0.2897100
21.660   0.2666700
21.680  -0.1810900
21.700  -0.6792800
21.720  -0.5038100
21.740  -0.2004500
21.760   0.1072000
21.780   0.6729700
21.800   0.7506400
21.820   0.3715500
21.840   0.0198200
21.860   0.1887300
21.880   0.2345700
21.900   0.1413700
21.920   0.0286800
21.940  -0.1015100
21.960  -0.3790500
21.980  -0.6925500
22.000  -0.8117700
22.020  -0.8140600
22.040  -0.5695200
22.060  -0.4834000
22.080  -0.3500200
22.100  -0.0455100
22.120   0.1099400
22.140   0.1954200
22.160   0.2572100
22.180   0.2680800
22.200   0.2356000
22.220   0.1394500
22.240   0.0932000
22.260   0.0546400
22.280   0.0823900
22.300   0.1820400
22.320   0.3222500
22.340   0.2667600
22.360  -0.1328400
22.380  -0.2072500
22.400  -0.1287100
22.420  -0.1110700
22.440  -0.1090500
22.460  -0.3160400
22.480  -0.4240800
22.500  -0.4249500
22.520  -0.3918300
22.540  -0.1606000
22.560   0.0772400
22.580   0.2449100
22.600   0.3483300
22.620   0.3427200
22.640   0.2982900
22.660   0.2353800
22.680   0.1428700
22.700   0.0502300
22.720   0.0038400
22.740  -0.0677800
22.760  -0.1141100
22.780  -0.0322400
22.800   0.0436400
22.820   0.0282700
22.840   0.0600100
22.860   0.0899100
22.880   0.0771500
22.900   0.0999900
22.920  -0.1191200
22.940  -0.2700000
22.960  -0.2114700
22.980  -0.2190300
23.000  -0.2415200
23.020  -0.2578100
23.040  -0.1455600
23.060  -0.0266600
23.080   0.0221900
23.100   0.0253300
23.120  -0.0123100
23.140   0.0842900
23.160   0.2404700
23.180   0.3279700
23.200   0.3634800
23.220   0.3242800
23.240   0.2009100
23.260   0.1441800
23.280   0.1431200
23.300   0.0914700
23.320   0.0153500
23.340  -0.0934800
23.360  -0.1823000
23.380  -0.2430400
23.400  -0.2472600
23.420  -0.1747200
23.440  -0.0957000
23.460  -0.0256800
23.480   0.0854000
23.500   0.1121200
23.520   0.0522100
23.540   0.0580300
23.560   0.0896100
23.580   0.0318100
23.600  -0.0941100
23.620  -0.0939000
23.640  -0.0124400
23.660   0.1255900
23.680   0.2622900
23.700   0.3297900
23.720   0.1319500
23.740  -0.1874000
23.760  -0.2203700
23.780  -0.2131800
23.800  -0.1629600
23.820  -0.1612800
23.840  -0.1846300
23.860  -0.0245300
23.880   0.1077900
23.900   0.1370600
23.920   0.1551000
23.940   0.0822100
23.960  -0.0023200
23.980   0.1513000
24.000   0.2497900
24.020   0.1377600
24.040   0.0372900
24.060  -0.0412100
24.080  -0.1137000
24.100  -0.0586500
24.120   0.1270000
24.140   0.1359000
24.160  -0.0048500
24.180  -0.0114500
24.200   0.0525600
24.220  -0.0101200
24.240  -0.1245800
24.260  -0.1871500
24.280  -0.2268300
24.300  -0.2590000
24.320  -0.2655200
24.340  -0.1606100
24.360  -0.0323200
24.380  -0.0071300
24.400   0.0852100
24.420   0.2881600
24.440   0.2824800
24.460   0.0834600
24.480   0.0579500
24.500   0.1362100
24.520   0.1361700
24.540   0.1304200
24.560   0.1347500
24.580   0.1300400
24.600   0.0697900
24.620   0.0343800
24.640   0.0358000
24.660  -0.0135400
24.680  -0.0735800
24.700  -0.0858700
24.720  -0.0052000
24.740   0.0363000
24.760  -0.0213900
24.780  -0.0657900
24.800  -0.1444400
24.820  -0.1336400
24.840   0.1151600
24.860   0.0770300
24.880  -0.0596100
24.900   0.0235200
24.920  -0.0120200
24.940  -0.0755600
24.960  -0.0712900
24.980  -0.1044300
25.000  -0.1173800
25.020  -0.0426300
25.040  -0.0069400
25.060  -0.0460500
25.080  -0.0718200
25.100  -0.0473200
25.120  -0.0433600
25.140  -0.1373500
25.160  -0.2120800
25.180  -0.1934600
25.200  -0.2009000
25.220  -0.1966600
25.240  -0.1427100
25.260  -0.0998700
25.280  -0.0186100
25.300   0.1078800
25.320   0.2112800
25.340   0.2559000
25.360   0.2647000
25.380   0.0955900
25.400  -0.0875900
25.420  -0.0837900
25.440  -0.0106000
25.460   0.0500900
25.480   0.0294500
25.500   0.0387900
25.520   0.0645500
25.540   0.0574300
25.560   0.0572200
25.580   0.0434700
25.600   0.0009500
25.620   0.0124000
25.640   0.0510100
25.660   0.0203000
25.680  -0.0167600
25.700   0.0045600
25.720   0.0484000
25.740   0.0454800
25.760   0.0408100
25.780   0.1077700
25.800   0.1552800
25.820   0.1702400
25.840   0.1769400
25.860   0.1497900
25.880   0.1631200
25.900   0.2358300
25.920   0.2438300
25.940   0.1522000
25.960   0.0438800
25.980  -0.0063600
26.000  -0.0338800
26.020  -0.0695900
26.040  -0.0569400
26.060  -0.0513000
26.080  -0.0383800
26.100  -0.0230200
26.120  -0.0442300
26.140  -0.0780100
26.160  -0.0940500
26.180  -0.0676500
26.200  -0.0326000
26.220  -0.0346100
26.240  -0.0697200
26.260  -0.0544900
26.280  -0.0278500
26.300  -0.0256000
26.320   0.0226300
26.340   0.0761900
26.360   0.0898300
26.380   0.0548400
26.400  -0.0062100
26.420  -0.0506600
26.440  -0.0828400
26.460  -0.1267600
26.480  -0.1371600
26.500  -0.1292700
26.520  -0.1380300
26.540  -0.1383300
26.560  -0.0757600
26.580   0.0501500
26.600   0.0592600
26.620   0.0208900
26.640   0.0183400
26.660  -0.0148300
26.680  -0.0734100
26.700  -0.0699100
26.720  -0.0089600
26.740   0.0464300
26.760   0.0521700
26.780   0.0633200
26.800   0.1280000
26.820   0.1930700
26.840   0.2002300
26.860   0.1810800
26.880   0.1389000
26.900   0.0757500
26.920   0.0065100
26.940  -0.0997100
26.960  -0.1616600
26.980  -0.1983500
27.000  -0.2086200
27.020  -0.1725300
27.040  -0.1312900
27.060  -0.0764000
27.080  -0.0073000
27.100   0.0237000
27.120   0.0150800
27.140   0.0203300
27.160   0.0353400
27.180   0.0643600
27.200   0.0907100
27.220   0.0940800
27.240   0.1003300
27.260   0.1044900
27.280   0.0647500
27.300   0.0080400
27.320   0.0212600
27.340   0.0328000
27.360  -0.0048000
27.380  -0.0332500
27.400  -0.0390000
27.420  -0.0407300
27.440  -0.0384200
27.460  -0.0456200
27.480  -0.0639900
27.500  -0.0952700
27.520  -0.1088200
27.540  -0.0698700
27.560  -0.0578400
27.580  -0.0532100
27.600  -0.0188100
27.620   0.0124700
27.640   0.0397000
27.660   0.0459900
27.680   0.0743400
27.700   0.1046400
27.720   0.1186300
27.740   0.1240600
27.760   0.1015800
27.780   0.0478900
27.800  -0.0257100
27.820  -0.0443200
27.840  -0.0626900
27.860  -0.0722500
27.880  -0.0694000
27.900  -0.0638400
27.920  -0.0867800
27.940  -0.0658500
27.960   0.0302800
27.980   0.0567000
28.000   0.0427500
28.020   0.0373500
28.040   0.0317700
28.060  -0.0149900
28.080  -0.0521100
28.100  -0.0683400
28.120  -0.0516600
28.140  -0.0087300
28.160  -0.0250800
28.180  -0.0337800
28.200  -0.0360200
28.220  -0.0694500
28.240  -0.1070500
28.260  -0.1228600
28.280  -0.1165000
28.300  -0.0953800
28.320  -0.0979700
28.340  -0.0863600
28.360   0.0516100
28.380   0.1453300
28.400   0.0361300
28.420  -0.0837300
28.440  -0.0115900
28.460   0.0735500
28.480   0.0127400
28.500  -0.0427300
28.520  -0.0723200
28.540  -0.1083300
28.560  -0.1124200
28.580  -0.0486700
28.600  -0.0078700
28.620   0.0588800
28.640   0.1649600
28.660   0.0837900
28.680  -0.0525200
28.700  -0.0288400
28.720   0.1233700
28.740   0.1997800
28.760   0.1418200
28.780   0.0443200
28.800  -0.0214200
28.820   0.0306300
28.840   0.1828300
28.860   0.1860900
28.880   0.0506600
28.900   0.0079700
28.920  -0.0358200
28.940  -0.0905900
28.960  -0.0473000
28.980   0.0628500
29.000   0.0830400
29.020   0.0436600
29.040  -0.0141200
29.060  -0.0621300
29.080   0.0241300
29.100   0.0912000
29.120   0.0621300
29.140   0.0763900
29.160   0.0984900
29.180   0.0760100
29.200   0.0676700
29.220   0.0756300
29.240   0.0838800
29.260   0.0555300
29.280  -0.0251200
29.300  -0.1136400
29.320  -0.1646500
29.340  -0.1929600
29.360  -0.2160700
29.380  -0.2207300
29.400  -0.1455700
29.420  -0.0895000
29.440  -0.0625200
29.460  -0.0421100
29.480  -0.0859600
29.500  -0.1228600
29.520  -0.0962200
29.540  -0.0505400
29.560  -0.0318500
29.580  -0.0004400
29.600  -0.0052100
29.620  -0.0377400
29.640  -0.0138500
29.660   0.0189200
29.680   0.0044500
29.700  -0.0246100
29.720  -0.0850800
29.740  -0.1366800
29.760  -0.0993800
29.780  -0.0370500
29.800  -0.0266500
29.820  -0.0111300
29.840   0.0531600
29.860   0.0656100
29.880   0.0461100
29.900   0.0939100
29.920   0.1478800
29.940   0.0523200
29.960  -0.0714700
29.980  -0.0649100
30.000  -0.0943100
30.020  -0.0785500
30.040   0.0266800
30.060   0.0431900
30.080  -0.0140700
30.100  -0.0484500
30.120  -0.0406700
30.140  -0.0723200
30.160  -0.0961200
30.180  -0.0638700
30.200  -0.0442600
30.220   0.0011700
30.240   0.0440900
30.260   0.0626700
30.280   0.1029100
30.300   0.1417000
30.320   0.1044800
30.340   0.0489300
30.360   0.0309300
30.380   0.0323300
30.400  -0.0032200
30.420  -0.0610300
30.440  -0.0659100
30.460  -0.0196100
30.480   0.0301400
30.500   0.0372300
30.520   0.0713200
30.540   0.1241400
30.560   0.1477800
30.580   0.1245100
30.600   0.1124800
30.620   0.1276700
30.640   0.1290300
30.660   0.0793400
30.680   0.0145100
30.700   0.0426700
30.720   0.0536800
30.740   0.0362200
30.760   0.0918300
30.780   0.1619700
30.800   0.1371400
30.820   0.0861700
30.840   0.0337400
30.860   0.0103900
30.880  -0.0007600
30.900  -0.0336300
30.920  -0.0113100
30.940  -0.0229500
30.960  -0.0788100
30.980  -0.1037300
31.000  -0.0880200
31.020  -0.0421000
31.040   0.0025000
31.060  -0.0278600
31.080  -0.0181100
31.100   0.0006200
31.120  -0.0236300
31.140  -0.0111700
31.160   0.0044200
31.180  -0.0160500
31.200   0.0008200
31.220   0.0399000
31.240   0.0066700
31.260  -0.0877200
31.280  -0.1204900
31.300  -0.0764200
31.320  -0.0535400
31.340  -0.0420700
31.360  -0.0253700
31.380   0.0109600
31.400   0.0653600
31.420   0.0844000
31.440   0.0912100
31.460   0.1657400
31.480   0.1610800
31.500   0.1101400
31.520   0.0878400
31.540   0.0309000
31.560   0.0124800
31.580   0.0278900
31.600  -0.0100800
31.620  -0.0267500
31.640  -0.0080100
31.660  -0.0161800
31.680  -0.0480500
31.700  -0.0440400
31.720  -0.0349400
31.740  -0.0892400
31.760  -0.0993500
31.780  -0.0227300
31.800  -0.0129800
31.820  -0.0547400
31.840  -0.0308400
31.860  -0.0305700
31.880  -0.0469000
31.900  -0.0273200
31.920   0.0019900
31.940   0.0185400
31.960   0.0499400
31.980   0.0695400
32.000   0.0488900
32.020   0.0212400
32.040  -0.0348100
32.060  -0.0541800
32.080  -0.0453000
32.100  -0.0648200
32.120  -0.0795400
32.140  -0.0568100
32.160  -0.0391400
32.180  -0.0439000
32.200  -0.0598300
32.220  -0.0525200
32.240  -0.0295000
32.260  -0.0156400
32.280   0.0033200
32.300   0.0040400
32.320  -0.0389900
32.340  -0.0309300
32.360   0.0275100
32.380   0.0158500
32.400  -0.0073300
32.420   0.0055700
32.440  -0.0110300
32.460  -0.0314500
32.480   0.0160700
32.500   0.0400800
32.520   0.0008500
32.540   0.0030000
32.560   0.0517200
32.580   0.0423100
32.600   0.0007900
32.620  -0.0103800
32.640  -0.0092900
32.660  -0.0174200
32.680  -0.0446100
32.700  -0.0700400
32.720  -0.0630400
32.740  -0.0380200
32.760  -0.0169800
32.780   0.0226000
32.800   0.0629700
32.820   0.0748900
32.840   0.0408900
32.860  -0.0169300
32.880  -0.0317500
32.900  -0.0279100
32.920  -0.0525100
32.940  -0.0467300
32.960  -0.0426200
32.980  -0.0264400
33.000   0.0127400
33.020  -0.0087900
33.040  -0.0540600
33.060  -0.0630200
33.080  -0.0344600
33.100  -0.0424000
33.120  -0.0334000
33.140   0.0160500
33.160   0.0036200
33.180   0.0038800
33.200   0.0262600
33.220   0.0389900
33.240   0.0483600
33.260   0.0195200
33.280   0.0019300
33.300  -0.0039300
33.320  -0.0319000
33.340  -0.0813300
33.360  -0.1082700
33.380  -0.1050100
33.400  -0.0887900
33.420  -0.0700100
33.440  -0.0156200
33.460   0.0257100
33.480   0.0427700
33.500   0.0662800
33.520   0.0529500
33.540   0.0452400
33.560   0.0203600
33.580  -0.0219000
33.600  -0.0492300
33.620  -0.0200800
33.640   0.0276000
33.660   0.0239000
33.680   0.0235100
33.700   0.0085800
33.720  -0.0110400
33.740   0.0057900
33.760   0.0319800
33.780   0.0477000
33.800   0.0242800
33.820  -0.0164900
33.840  -0.0340300
33.860  -0.0432900
33.880  -0.0448300
33.900  -0.0267900
33.920  -0.0014200
33.940   0.0093900
33.960   0.0241600
33.980   0.0367700
34.000   0.0458100
34.020   0.0451900
34.040   0.0533400
34.060   0.0858700
34.080   0.0850000
34.100   0.0738400
34.120   0.0758200
34.140   0.0600100
34.160   0.0217500
34.180   0.0148400
34.200  -0.0046500
34.220  -0.0380400
34.240  -0.0740000
34.260  -0.0826900
34.280  -0.0687600
34.300  -0.0738900
34.320  -0.0312500
34.340  -0.0223100
34.360  -0.0476700
34.380  -0.0203700
34.400   0.0015500
34.420  -0.0189800
34.440  -0.0273100
34.460  -0.0286500
34.480  -0.0128300
34.500  -0.0164500
34.520   0.0056000
34.540   0.0689000
34.560   0.0986600
34.580   0.1017000
34.600   0.1104600
34.620   0.1321900
34.640   0.1329100
34.660   0.1084200
34.680   0.1130700
34.700   0.1332500
34.720   0.1031800
34.740   0.0615200
34.760   0.0167600
34.780   0.0107100
34.800   0.0217900
34.820   0.0430000
34.840   0.0681200
34.860   0.0813800
34.880   0.0736900
34.900   0.0864400
34.920   0.1230500
34.940   0.1160700
34.960   0.0732400
34.980   0.0307500
35.000  -0.0226400
35.020  -0.0800500
35.040  -0.0889000
35.060  -0.0950800
35.080  -0.0929900
35.100  -0.0957600
35.120  -0.0936200
35.140  -0.0722400
35.160  -0.0924900
35.180  -0.0999600
35.200  -0.0687500
35.220  -0.0269700
35.240  -0.0214900
35.260  -0.0203800
35.280   0.0155600
35.300   0.0254000
35.320   0.0136200
35.340  -0.0222000
35.360  -0.0198800
35.380   0.0147600
35.400  -0.0022200
35.420   0.0072100
35.440   0.0253600
35.460   0.0121300
35.480   0.0222300
35.500   0.0169100
35.520  -0.0607800
35.540  -0.0670800
35.560  -0.0358900
35.580  -0.0221000
35.600  -0.0143200
35.620  -0.0123900
35.640   0.0126700
35.660   0.0492600
35.680   0.0699200
35.700   0.0891300
35.720   0.1488800
35.740   0.1656700
35.760   0.0514900
35.780  -0.0354800
35.800   0.0015900
35.820   0.0167000
35.840  -0.0214600
35.860  -0.0430800
35.880  -0.0403300
35.900  -0.0613100
35.920  -0.0796700
35.940  -0.0478600
35.960   0.0219800
35.980   0.0032600
36.000  -0.0798600
36.020  -0.1085800
36.040  -0.0667200
36.060  -0.0598100
36.080  -0.0995900
36.100  -0.0575300
36.120  -0.0019100
36.140  -0.0389800
36.160  -0.0333800
36.180   0.0644500
36.200   0.1019800
36.220   0.1046800
36.240   0.0867400
36.260  -0.0046400
36.280   0.0395900
36.300   0.1515700
36.320   0.1466600
36.340   0.1450900
36.360   0.1602100
36.380   0.0874800
36.400   0.0251600
36.420   0.0421700
36.440   0.0568500
36.460   0.0196500
36.480   0.0235200
36.500   0.1248200
36.520   0.1799000
36.540   0.1077800
36.560  -0.1508900
36.580  -0.3803200
36.600  -0.4315200
36.620  -0.4535300
36.640  -0.3875900
36.660  -0.1609400
36.680  -0.0805800
36.700  -0.1061300
36.720  -0.0301700
36.740   0.0626800
36.760   0.1787800
36.780   0.0756200
36.800  -0.1911300
36.820  -0.1380900
36.840  -0.1084200
36.860  -0.0511500
36.880   0.2814600
36.900   0.1540000
36.920  -0.1297000
36.940   0.2093300
36.960   0.4167700
36.980   0.2425900
37.000  -0.0011900
37.020  -0.2089800
37.040  -0.1819200
37.060   0.0172300
37.080   0.0966400
37.100  -0.2663800
37.120  -0.4076200
37.140  -0.2592100
37.160  -0.1558600
37.180   0.0011200
37.200   0.0556700
37.220   0.1594100
37.240   0.2296000
37.260   0.1695000
37.280   0.1753800
37.300   0.2265100
37.320   0.2101300
37.340   0.2241300
37.360   0.2732900
37.380   0.2187200
37.400   0.1138000
37.420   0.0061200
37.440  -0.0588300
37.460  -0.1075400
37.480  -0.0022100
37.500   0.2499800
37.520   0.1578300
37.540  -0.1592200
37.560  -0.2041000
37.580  -0.0852700
37.600  -0.1054600
37.620  -0.2448000
37.640  -0.3466900
37.660  -0.3825700
37.680  -0.3639600
37.700  -0.2669600
37.720  -0.1774600
37.740  -0.0552300
37.760   0.1240300
37.780   0.3525400
37.800   0.5503300
37.820   0.5611600
37.840   0.5041000
37.860   0.4287800
37.880   0.3363900
37.900   0.1543300
37.920  -0.0847900
37.940  -0.2373700
37.960  -0.2789300
37.980  -0.2737400
38.000  -0.3234800
38.020  -0.2968300
38.040  -0.0776200
38.060   0.0170700
38.080   0.0635100
38.100   0.1936500
38.120   0.2230200
38.140   0.1135100
38.160  -0.0145000
38.180  -0.0603300
38.200  -0.1238000
38.220  -0.1558000
38.240  -0.1553600
38.260  -0.1160500
38.280  -0.0608300
38.300  -0.0597500
38.320  -0.0245900
38.340   0.0416600
38.360   0.0942400
38.380   0.1023400
38.400   0.0794100
38.420   0.0748400
38.440   0.0857600
38.460   0.0701800
38.480   0.0300100
38.500  -0.0241300
38.520  -0.1042900
38.540  -0.1276900
38.560  -0.1286400
38.580  -0.1070600
38.600  -0.0557900
38.620  -0.0352900
38.640  -0.0353300
38.660  -0.0470100
38.680  -0.0677300
38.700  -0.0701100
38.720  -0.0782800
38.740  -0.0940400
38.760  -0.0975100
38.780  -0.1014700
38.800  -0.0808800
38.820  -0.0351100
38.840   0.0060100
38.860   0.0158800
38.880   0.0166200
38.900   0.0640900
38.920   0.1160000
38.940   0.1335300
38.960   0.1128300
38.980   0.1058500
39.000   0.0789800
39.020   0.0588300
39.040   0.0582600
39.060   0.0128700
39.080  -0.0094000
39.100  -0.0321700
39.120  -0.0777700
39.140  -0.1039400
39.160  -0.0950700
39.180  -0.0752500
39.200  -0.0676800
39.220  -0.0503900
39.240  -0.0381700
39.260  -0.0125400
39.280   0.0147900
39.300   0.0131900
39.320   0.0345200
39.340   0.0616500
39.360   0.0565800
39.380   0.0362700
39.400   0.0336400
39.420   0.0208400
39.440   0.0327900
39.460   0.0293900
39.480  -0.0248000
39.500  -0.0570600
39.520  -0.0483200
39.540  -0.0503800
39.560  -0.0757800
39.580  -0.0569500
39.600  -0.0215400
39.620  -0.0133500
39.640  -0.0169200
39.660  -0.0254300
39.680  -0.0064000
39.700   0.0177500
39.720   0.0407100
39.740   0.0713800
39.760   0.1003400
39.780   0.1289800
39.800   0.1224100
39.820   0.0994600
39.840   0.0812600
39.860   0.0592100
39.880   0.0206400
39.900  -0.0318700
39.920  -0.0676900
39.940  -0.0891000
39.960  -0.1392000
39.980  -0.1595600
40.000  -0.1582500
40.020  -0.1278900
40.040  -0.0808300
40.060  -0.0679900
40.080  -0.0107400
40.100   0.0354400
40.120   0.0725900
40.140   0.0903900
40.160   0.0794200
40.180   0.0629400
40.200   0.0452000
40.220   0.0491200
40.240   0.0343700
40.260   0.0025600
40.280  -0.0117600
40.300  -0.0091500
40.320  -0.0271900
40.340  -0.0503500
40.360  -0.0701800
40.380  -0.0474000
40.400  -0.0556700
40.420  -0.0607100
40.440  -0.0126600
40.460   0.0133900
40.480   0.0209900
40.500   0.0185600
40.520  -0.0019700
40.540  -0.0440000
40.560  -0.0684500
40.580  -0.0052000
40.600   0.0942700
40.620   0.1338100
40.640   0.1352300
40.660   0.1135400
40.680   0.1059400
40.700   0.1071000
40.720   0.0775200
40.740   0.0234000
40.760  -0.0086500
40.780  -0.0077600
40.800  -0.0114900
40.820  -0.0475800
40.840  -0.0713100
40.860  -0.0894800
40.880  -0.1289300
40.900  -0.1538000
40.920  -0.1543300
40.940  -0.1568700
40.960  -0.1612400
40.980  -0.1128100
41.000  -0.0511600
41.020  -0.0389800
41.040  -0.0333900
41.060  -0.0419200
41.080  -0.0125000
41.100   0.0393500
41.120   0.0833200
41.140   0.1304900
41.160   0.1423300
41.180   0.1285900
41.200   0.1140200
41.220   0.1086100
41.240   0.0669700
41.260   0.0361600
41.280   0.0118100
41.300  -0.0046100
41.320  -0.0022200
41.340  -0.0025100
41.360   0.0045200
41.380  -0.0169000
41.400  -0.0536500
41.420  -0.0645600
41.440  -0.0613400
41.460  -0.0617800
41.480  -0.0591900
41.500  -0.0621700
41.520  -0.0505300
41.540  -0.0146100
41.560   0.0089500
41.580   0.0274400
41.600   0.0254500
41.620   0.0437300
41.640   0.0819000
41.660   0.0672200
41.680   0.0439800
41.700   0.0147300
41.720   0.0067900
41.740   0.0366100
41.760   0.0564300
41.780   0.0847800
41.800   0.0822600
41.820   0.0600800
41.840   0.0610500
41.860   0.0533000
41.880   0.0009900
41.900  -0.0210200
41.920  -0.0343400
41.940  -0.0822700
41.960  -0.1116600
41.980  -0.1008800
42.000  -0.0838000
42.020  -0.0573600
42.040  -0.0202400
42.060  -0.0007400
42.080   0.0251500
42.100   0.0509500
42.120   0.0805500
42.140   0.0819100
42.160   0.0658100
42.180   0.0771500
42.200   0.0936900
42.220   0.1002400
42.240   0.1190800
42.260   0.1278900
42.280   0.1328500
42.300   0.1256300
42.320   0.1005200
42.340   0.0917700
42.360   0.0698600
42.380   0.0405000
42.400   0.0387300
42.420   0.0349200
42.440  -0.0049400
42.460  -0.0445000
42.480  -0.0405900
42.500  -0.0352900
42.520  -0.0334400
42.540  -0.0116600
42.560   0.0090300
42.580  -0.0017600
42.600  -0.0312500
42.620  -0.0156600
42.640   0.0074600
42.660  -0.0143400
42.680  -0.0185000
42.700  -0.0335600
42.720  -0.0449000
42.740  -0.0476200
42.760  -0.0696100
42.780  -0.0436500
42.800   0.0115600
42.820   0.0222200
42.840   0.0094400
42.860   0.0138600
42.880   0.0067100
42.900  -0.0048100
42.920   0.0008700
42.940  -0.0039700
42.960  -0.0152800
42.980  -0.0081900
43.000  -0.0151000
43.020  -0.0084600
43.040   0.0097100
43.060   0.0325900
43.080   0.0441300
43.100   0.0619600
43.120   0.0803900
43.140   0.0877900
43.160   0.0768500
43.180   0.0460500
43.200   0.0674300
43.220   0.0672000
43.240   0.0283200
43.260  -0.0108100
43.280  -0.0158700
43.300  -0.0341400
43.320  -0.0649900
43.340  -0.0754600
43.360  -0.0989100
43.380  -0.1056600
43.400  -0.0822100
43.420  -0.0732900
43.440  -0.0746000
43.460  -0.0735200
43.480  -0.0709400
43.500  -0.0662400
43.520  -0.0951100
43.540  -0.1009100
43.560  -0.1037800
43.580  -0.1270900
43.600  -0.1155700
43.620  -0.0924600
43.640  -0.0542100
43.660  -0.0234300
43.680  -0.0098300
43.700  -0.0138200
43.720   0.0019500
43.740   0.0360200
43.760   0.0475100
43.780   0.0438800
43.800   0.0195700
43.820   0.0196300
43.840   0.0350200
43.860   0.0273100
43.880   0.0193800
43.900   0.0154500
43.920  -0.0069800
43.940  -0.0229200
43.960  -0.0450500
43.980  -0.0530100
44.000  -0.0375700
44.020  -0.0410800
44.040  -0.0379500
44.060  -0.0249500
44.080   0.0061800
44.100   0.0147600
44.120   0.0360000
44.140   0.0502200
44.160   0.0233800
44.180   0.0202400
44.200   0.0198800
44.220   0.0206000
44.240   0.0041400
44.260  -0.0219500
44.280  -0.0368600
44.300  -0.0349900
44.320  -0.0378600
44.340  -0.0193200
44.360  -0.0094400
44.380  -0.0094000
44.400  -0.0003100
44.420  -0.0211600
44.440  -0.0538100
44.460  -0.0616700
44.480  -0.0484900
44.500  -0.0530000
44.520  -0.0678600
44.540  -0.0658100
44.560  -0.0675000
44.580  -0.0648800
44.600  -0.0599800
44.620  -0.0545900
44.640  -0.0329300
44.660  -0.0273200
44.680  -0.0300400
44.700  -0.0192500
44.720   0.0014900
44.740  -0.0001200
44.760   0.0029000
44.780   0.0256400
44.800   0.0307700
44.820   0.0312600
44.840   0.0207100
44.860  -0.0035900
44.880  -0.0106600
44.900  -0.0007700
44.920   0.0044800
44.940   0.0028900
44.960   0.0024800
44.980   0.0242700
45.000   0.0310400
45.020   0.0040800
45.040   0.0183700
45.060   0.0268900
45.080   0.0092800
45.100  -0.0022000
45.120  -0.0199700
45.140   0.0170300
45.160   0.0337800
45.180   0.0333600
45.200   0.0350700
45.220   0.0369800
45.240   0.0360500
45.260   0.0500600
45.280   0.0439100
45.300   0.0502200
45.320   0.0597600
45.340   0.0540100
45.360   0.0587600
45.380   0.0116800
45.400   0.0048200
45.420   0.0242700
45.440   0.0428400
45.460   0.0183700
45.480   0.0010800
45.500   0.0035700
45.520  -0.0029100
45.540   0.0124900
45.560   0.0189300
45.580   0.0049200
45.600  -0.0044700
45.620  -0.0016400
45.640   0.0022300
45.660  -0.0041000
45.680  -0.0065100
45.700   0.0045600
45.720   0.0210900
45.740   0.0304800
45.760   0.0233600
45.780   0.0332200
45.800   0.0403600
45.820   0.0319800
45.840   0.0204100
45.860   0.0029800
45.880  -0.0083700
45.900  -0.0197800
45.920  -0.0394800
45.940  -0.0684000
45.960  -0.0919500
45.980  -0.0813400
46.000  -0.0698300
46.020  -0.0916900
46.040  -0.0867300
46.060  -0.0621200
46.080  -0.0358000
46.100   0.0231900
46.120   0.0515800
46.140   0.0853700
46.160   0.1384800
46.180   0.1612200
46.200   0.1461400
46.220   0.1138200
46.240   0.1014800
46.260   0.0798000
46.280   0.0450500
46.300   0.0147800
46.320  -0.0021000
46.340  -0.0443200
46.360  -0.0356600
46.380   0.0210400
46.400   0.0230100
46.420   0.0114800
46.440   0.0186300
46.460   0.0294100
46.480   0.0171300
46.500  -0.0043700
46.520  -0.0332200
46.540  -0.0318400
46.560  -0.0237500
46.580  -0.0286600
46.600  -0.0264900
46.620  -0.0186600
46.640  -0.0003900
46.660  -0.0029000
46.680   0.0128700
46.700   0.0173700
46.720   0.0158400
46.740   0.0329200
46.760   0.0371400
46.780   0.0405600
46.800   0.0293500
46.820   0.0120800
46.840   0.0067100
46.860   0.0167000
46.880   0.0308200
46.900   0.0290400
46.920   0.0104600
46.940  -0.0033200
46.960   0.0142900
46.980   0.0311400
47.000   0.0054900
47.020  -0.0301800
47.040  -0.0400300
47.060  -0.0502800
47.080  -0.0398800
47.100  -0.0238600
47.120  -0.0290400
47.140  -0.0120800
47.160  -0.0159400
47.180  -0.0490300
47.200  -0.0386900
47.220   0.0315200
47.240   0.0432100
47.260   0.0134000
47.280   0.0221000
47.300   0.0103500
47.320  -0.0369700
47.340  -0.0597900
47.360  -0.0443500
47.380  -0.0307100
47.400  -0.0364900
47.420  -0.0335100
47.440  -0.0226300
47.460  -0.0177300
47.480  -0.0101700
47.500  -0.0148400
47.520  -0.0077400
47.540  -0.0036800
47.560  -0.0116600
47.580  -0.0147000
47.600  -0.0342600
47.620  -0.0167800
47.640   0.0334400
47.660   0.0450900
47.680   0.0286900
47.700   0.0238000
47.720   0.0055500
47.740  -0.0034600
47.760  -0.0288200
47.780  -0.0686300
47.800  -0.0546000
47.820  -0.0412900
47.840  -0.0433800
47.860  -0.0250300
47.880   0.0028500
47.900   0.0296200
47.920   0.0472700
47.940   0.0350000
47.960   0.0205700
47.980   0.0182000
48.000   0.0234700
48.020   0.0128700
48.040  -0.0070600
48.060  -0.0212300
48.080  -0.0157500
48.100   0.0105600
48.120   0.0159000
48.140  -0.0157400
48.160  -0.0378700
48.180  -0.0272400
48.200  -0.0189500
48.220   0.0040800
48.240   0.0190400
48.260   0.0137400
48.280   0.0347500
48.300   0.0589400
48.320   0.0466900
48.340   0.0372800
48.360   0.0354900
48.380   0.0258300
48.400   0.0174100
48.420   0.0176500
48.440   0.0011600
48.460  -0.0150200
48.480  -0.0273000
48.500  -0.0427100
48.520  -0.0497300
48.540  -0.0313600
48.560  -0.0113800
48.580  -0.0148400
48.600  -0.0088300
48.620   0.0022900
48.640   0.0143800
48.660   0.0110200
48.680   0.0232400
48.700   0.0339800
48.720   0.0188200
48.740  -0.0055500
48.760  -0.0125200
48.780  -0.0116800
48.800  -0.0113000
48.820  -0.0171600
48.840  -0.0351800
48.860  -0.0383900
48.880  -0.0415500
48.900  -0.0375200
48.920  -0.0436000
48.940  -0.0230900
48.960  -0.0123200
48.980  -0.0042200
49.000   0.0043100
49.020  -0.0007500
49.040   0.0227600
49.060   0.0234300
49.080   0.0194100
49.100   0.0180500
49.120   0.0168400
49.140   0.0407900
49.160   0.0427900
49.180   0.0184500
49.200   0.0173300
49.220   0.0162100
49.240   0.0175800
49.260   0.0167600
49.280   0.0168700
49.300   0.0166600
49.320   0.0013800
49.340  -0.0091400
49.360  -0.0115000
49.380  -0.0174400
49.400  -0.0198300
49.420  -0.0185100
49.440  -0.0328200
49.460  -0.0420400
49.480  -0.0393900
49.500  -0.0369400
49.520  -0.0285700
49.540  -0.0046600
49.560  -0.0253000
49.580  -0.0387700
49.600  -0.0309500
49.620  -0.0412200
49.640  -0.0156700
49.660   0.0021800
49.680  -0.0021900
49.700  -0.0121900
49.720  -0.0202100
49.740  -0.0039500
49.760   0.0155900
49.780   0.0126300
49.800  -0.0041600
49.820   0.0009600
49.840   0.0016600
49.860   0.0074700
49.880   0.0165800
49.900   0.0147800
49.920   0.0196800
49.940   0.0213900
49.960   0.0255800
49.980   0.0265800
50.000   0.0067100
50.020  -0.0066400
50.040   0.0212400
50.060   0.0169300
50.080   0.0121400
50.100   0.0167500
50.120   0.0130600
50.140   0.0043600
50.160  -0.0108200
50.180  -0.0278200
50.200  -0.0389300
50.220  -0.0190300
50.240  -0.0115500
50.260  -0.0096100
50.280  -0.0080500
50.300  -0.0060500
50.320   0.0029200
50.340   0.0138800
50.360   0.0321400
50.380   0.0377100
50.400   0.0224300
50.420   0.0136700
50.440   0.0194900
50.460   0.0090400
50.480   0.0050600
50.500   0.0113700
50.520   0.0062500
50.540   0.0183300
50.560   0.0177400
50.580   0.0186400
50.600   0.0168000
50.620   0.0186700
50.640   0.0238800
50.660   0.0177500
50.680   0.0175300
50.700   0.0176900
50.720   0.0170900
50.740   0.0174600
50.760   0.0145900
50.780  -0.0045600
50.800  -0.0119400
50.820  -0.0125200
50.840  -0.0132200
50.860   0.0069400
50.880   0.0163300
50.900   0.0167500
50.920   0.0170600
50.940   0.0200000
50.960   0.0190000
50.980  -0.0020900
51.000  -0.0133600
51.020  -0.0127200
51.040  -0.0121500
51.060  -0.0126300
51.080  -0.0125100
51.100   0.0028000
51.120   0.0040200
51.140   0.0129600
51.160   0.0182400
51.180   0.0167100
51.200   0.0082000
51.220   0.0038400
51.240   0.0207000
51.260   0.0210100
51.280   0.0007800
51.300  -0.0433300
51.320  -0.0798000
51.340  -0.0879100
51.360   0.0039500
51.380   0.1517200
51.400   0.1969200
51.420   0.1974200
51.440   0.1767500
51.460  -0.0428900
51.480  -0.1590600
51.500  -0.0298800
51.520   0.0252600
51.540  -0.0171300
51.560  -0.0376500
51.580  -0.0329700
51.600  -0.0296100
51.620   0.0286000
51.640   0.0591600
51.660   0.0076900
51.680  -0.0307900
51.700  -0.0631500
51.720  -0.0548800
51.740  -0.0148600
51.760  -0.0047000
51.780  -0.0195800
51.800  -0.0159600
51.820   0.0180400
51.840   0.0592400
51.860   0.0795500
51.880   0.0486600
51.900   0.0083600
51.920  -0.0022200
51.940  -0.0153500
51.960  -0.0346500
51.980  -0.0317300
52.000  -0.0334800
52.020  -0.0391800
52.040  -0.0277700
52.060  -0.0306200
52.080  -0.0204400
52.100   0.0062200
52.120   0.0390900
52.140   0.0587000
52.160   0.0365600
52.180   0.0096500
52.200   0.0061000
52.220  -0.0096700
52.240  -0.0318600
52.260  -0.0539900
52.280  -0.0514200
52.300  -0.0273200
52.320  -0.0469600
52.340  -0.0597600
52.360  -0.0436500
52.380  -0.0327200
52.400  -0.0287200
52.420  -0.0048900
52.440  -0.0029800
52.460  -0.0009400
52.480  -0.0070800
52.500  -0.0422600
52.520  -0.0633600
52.540  -0.0427300
52.560  -0.0273900
52.580  -0.0467200
52.600  -0.0366000
52.620  -0.0062500
52.640   0.0124500
52.660   0.0182500
52.680   0.0150200
52.700   0.0014400
52.720  -0.0198600
52.740  -0.0272200
52.760  -0.0151700
52.780   0.0013900
52.800   0.0008900
52.820   0.0036800
52.840  -0.0017600
52.860  -0.0020300
52.880   0.0010700
52.900   0.0035400
52.920   0.0010000
52.940  -0.0051500
52.960  -0.0022100
52.980   0.0172700
53.000   0.0269200
53.020   0.0140200
53.040   0.0312800
53.060   0.0339400
53.080   0.0327400
53.100   0.0344000
53.120   0.0322600
53.140   0.0353500
53.160   0.0350100
53.180   0.0315700
53.200   0.0343700
53.220   0.0135100
53.240   0.0041800
53.260  -0.0140400
53.280  -0.0297200
53.300  -0.0416100
53.320  -0.0516300
53.340  -0.0503500
53.360  -0.0542400
53.380  -0.0389100
53.400  -0.0281900
53.420  -0.0252700
53.440  -0.0226000
53.460  -0.0052500
53.480   0.0013900
53.500   0.0015600
53.520   0.0013500
53.540   0.0222800
53.560   0.0317200
53.580   0.0125700
53.600   0.0032100
53.620   0.0015500
53.640   0.0137400
53.660   0.0054000
53.680   0.0042200
53.700   0.0032700
53.720   0.0068700
53.740   0.0219500
53.760   0.0315500
53.780   0.0351500
53.800   0.0361400
53.820   0.0425400
53.840   0.0371300
53.860   0.0300700
53.880   0.0067800
53.900   0.0053200
53.920   0.0100700
53.940   0.0129900
53.960  -0.0114000
53.980  -0.0126500
54.000  -0.0168900
54.020  -0.0252500
54.040  -0.0193400
54.060  -0.0139700
54.080  -0.0043800
54.100  -0.0173000
54.120   0.0016300
54.140   0.0069700
54.160   0.0054100
54.180  -0.0031700
54.200   0.0055900
54.220   0.0163500
54.240   0.0424000
54.260   0.0488600
54.280   0.0143600
54.300   0.0167400
54.320   0.0407900
54.340   0.0277900
54.360   0.0096700
54.380   0.0097500
54.400   0.0084300
54.420   0.0081600
54.440   0.0074200
54.460  -0.0152600
54.480  -0.0210900
54.500  -0.0187200
54.520  -0.0194600
54.540   0.0033600
54.560   0.0117000
54.580   0.0178100
54.600   0.0214700
54.620   0.0345100
54.640   0.0397700
54.660   0.0339500
54.680   0.0185500
54.700   0.0122700
54.720   0.0070100
54.740  -0.0081400
54.760  -0.0154200
54.780  -0.0243100
54.800  -0.0061900
54.820   0.0066000
54.840   0.0068800
54.860  -0.0079200
54.880  -0.0235400
54.900  -0.0208000
54.920  -0.0210000
54.940  -0.0215000
54.960  -0.0066900
54.980   0.0093500
55.000  -0.0070500
55.020  -0.0144300
55.040   0.0139800
55.060   0.0240800
55.080   0.0158800
55.100   0.0127400
55.120   0.0166000
55.140   0.0273600
55.160   0.0160200
55.180   0.0131800
55.200  -0.0035300
55.220  -0.0029500
55.240  -0.0062800
55.260  -0.0157800
55.280   0.0000200
55.300  -0.0088400
55.320  -0.0144400
55.340  -0.0154100
55.360  -0.0143700
55.380  -0.0158000
55.400  -0.0138100
55.420  -0.0168800
55.440  -0.0022900
55.460   0.0009900
55.480   0.0014200
55.500   0.0001000
55.520  -0.0105300
55.540   0.0145400
55.560   0.0127100
55.580   0.0147400
55.600   0.0126800
55.620   0.0162000
55.640   0.0357200
55.660   0.0192700
55.680   0.0122500
55.700   0.0147300
55.720   0.0117400
55.740   0.0162900
55.760   0.0008300
55.780  -0.0200300
55.800  -0.0012500
55.820  -0.0152400
55.840  -0.0365700
55.860  -0.0216600
55.880  -0.0408200
55.900  -0.0487500
55.920  -0.0513000
55.940  -0.0262400
55.960  -0.0145600
55.980  -0.0036000
56.000   0.0339100
56.020   0.0146100
56.040  -0.0149100
56.060  -0.0103400
56.080  -0.0301400
56.100  -0.0399700
56.120  -0.0180600
56.140  -0.0374200
56.160  -0.0335100
56.180  -0.0101100
56.200   0.0144200
56.220   0.0200000
56.240   0.0230000
56.260   0.0046400
56.280  -0.0106500
56.300  -0.0088400
56.320  -0.0222000
56.340  -0.0356100
56.360  -0.0377700
56.380  -0.0179800
56.400   0.0026300
56.420   0.0207200
56.440   0.0233800
56.460   0.0153200
56.480  -0.0205600
56.500  -0.0355000
56.520  -0.0392000
56.540  -0.0353700
56.560  -0.0390700
56.580  -0.0327400
56.600  -0.0469000
56.620  -0.0624400
56.640  -0.0227400
56.660  -0.0390600
56.680  -0.0430600
56.700  -0.0209100
56.720   0.0144700
56.740   0.0244100
56.760   0.0001400
56.780  -0.0118400
56.800   0.0079700
56.820   0.0361800
56.840   0.0238400
56.860   0.0304600
56.880  -0.0028600
56.900  -0.0610300
56.920  -0.0885800
56.940  -0.0826700
56.960  -0.0423000
56.980  -0.0316400
57.000  -0.0217500
57.020   0.0043400
57.040   0.0158500
57.060   0.0020300
57.080  -0.0024500
57.100  -0.0323300
57.120  -0.0431400
57.140  -0.0213700
57.160  -0.0226900
57.180  -0.0255400
57.200  -0.0234900
57.220  -0.0204900
57.240  -0.0140500
57.260  -0.0053500
57.280   0.0056800
57.300   0.0022300
57.320  -0.0191300
57.340  -0.0250800
57.360  -0.0148100
57.380  -0.0145300
57.400  -0.0133000
57.420  -0.0163700
57.440  -0.0154300
57.460   0.0054000
57.480   0.0162200
57.500   0.0283700
57.520   0.0179600
57.540   0.0345700
57.560   0.0420500
57.580   0.0385900
57.600   0.0397600
57.620   0.0286300
57.640   0.0305600
57.660   0.0110300
57.680  -0.0092200
57.700  -0.0185800
57.720  -0.0160700
57.740  -0.0029400
57.760  -0.0113800
57.780  -0.0003600
57.800   0.0178100
57.820   0.0314600
57.840   0.0434800
57.860   0.0398200
57.880   0.0309300
57.900  -0.0044700
57.920  -0.0115400
57.940   0.0035900
57.960  -0.0106000
57.980  -0.0124000
58.000   0.0034400
58.020   0.0115300
58.040   0.0055900
58.060   0.0037300
58.080   0.0114300
58.100   0.0175500
58.120   0.0156000
58.140   0.0114800
58.160   0.0057100
58.180   0.0093600
58.200   0.0137500
58.220   0.0127500
58.240   0.0136700
58.260   0.0126400
58.280   0.0143800
58.300   0.0118300
58.320   0.0046200
58.340   0.0040300
58.360   0.0011700
58.380   0.0049600
58.400  -0.0028400
58.420  -0.0185000
58.440  -0.0147500
58.460  -0.0158600
58.480   0.0044100
58.500  -0.0075600
58.520  -0.0293200
58.540  -0.0122900
58.560  -0.0206100
58.580  -0.0040500
58.600   0.0035000
58.620  -0.0135400
58.640   0.0054100
58.660   0.0176900
58.680   0.0119500
58.700   0.0044500
58.720  -0.0112500
58.740  -0.0085200
58.760   0.0224900
58.780   0.0209500
58.800   0.0160700
58.820   0.0177800
58.840   0.0158800
58.860   0.0104400
58.880   0.0161900
58.900   0.0101000
58.920   0.0012200
58.940   0.0181600
58.960   0.0057100
58.980  -0.0064400
59.000  -0.0108700
59.020   0.0026100
59.040   0.0157400
59.060   0.0067300
59.080   0.0224800
59.100   0.0147100
59.120   0.0017000
59.140   0.0088600
59.160   0.0002100
59.180  -0.0065100
59.200  -0.0049100
59.220  -0.0060900
59.240   0.0133800
59.260   0.0237200
59.280   0.0035900
59.300  -0.0024100
59.320   0.0005800
59.340   0.0193100
59.360  -0.0069300
59.380  -0.0268100
59.400   0.0073000
59.420   0.0312000
59.440   0.0279400
59.460   0.0102600
59.480   0.0044800
59.500   0.0097100
59.520   0.0119100
59.540   0.0028900
59.560   0.0110400
59.580   0.0276000
59.600   0.0347300
59.620   0.0223700
59.640   0.0087500
59.660   0.0034600
59.680   0.0036600
59.700   0.0087100
59.720   0.0169600
59.740  -0.0089900
59.760  -0.0026000
59.780   0.0313500
59.800   0.0010200
59.820  -0.0170700
59.840   0.0230400
59.860   0.0089000
59.880  -0.0182700
59.900   0.0104700
59.920   0.0083200
59.940   0.0225100
59.960   0.0356100
59.980   0.0394400
60.000   0.0265100
