%!PS-Adobe-3.0 EPSF-3.0
%%Creator: Graphviz version 2.20.2 (Tue Mar  2 21:46:26 UTC 2010)
%%For: (jayant) jayant,,,
%%Title: FSM
%%Pages: (atend)
%%BoundingBox: (atend)
%%EndComments
save
%%BeginProlog
/DotDict 200 dict def
DotDict begin

/setupLatin1 {
mark
/EncodingVector 256 array def
 EncodingVector 0

ISOLatin1Encoding 0 255 getinterval putinterval
EncodingVector 45 /hyphen put

% Set up ISO Latin 1 character encoding
/starnetISO {
        dup dup findfont dup length dict begin
        { 1 index /FID ne { def }{ pop pop } ifelse
        } forall
        /Encoding EncodingVector def
        currentdict end definefont
} def
/Times-Roman starnetISO def
/Times-Italic starnetISO def
/Times-Bold starnetISO def
/Times-BoldItalic starnetISO def
/Helvetica starnetISO def
/Helvetica-Oblique starnetISO def
/Helvetica-Bold starnetISO def
/Helvetica-BoldOblique starnetISO def
/Courier starnetISO def
/Courier-Oblique starnetISO def
/Courier-Bold starnetISO def
/Courier-BoldOblique starnetISO def
cleartomark
} bind def

%%BeginResource: procset graphviz 0 0
/coord-font-family /Times-Roman def
/default-font-family /Times-Roman def
/coordfont coord-font-family findfont 8 scalefont def

/InvScaleFactor 1.0 def
/set_scale {
       dup 1 exch div /InvScaleFactor exch def
       scale
} bind def

% styles
/solid { [] 0 setdash } bind def
/dashed { [9 InvScaleFactor mul dup ] 0 setdash } bind def
/dotted { [1 InvScaleFactor mul 6 InvScaleFactor mul] 0 setdash } bind def
/invis {/fill {newpath} def /stroke {newpath} def /show {pop newpath} def} bind def
/bold { 2 setlinewidth } bind def
/filled { } bind def
/unfilled { } bind def
/rounded { } bind def
/diagonals { } bind def

% hooks for setting color 
/nodecolor { sethsbcolor } bind def
/edgecolor { sethsbcolor } bind def
/graphcolor { sethsbcolor } bind def
/nopcolor {pop pop pop} bind def

/beginpage {	% i j npages
	/npages exch def
	/j exch def
	/i exch def
	/str 10 string def
	npages 1 gt {
		gsave
			coordfont setfont
			0 0 moveto
			(\() show i str cvs show (,) show j str cvs show (\)) show
		grestore
	} if
} bind def

/set_font {
	findfont exch
	scalefont setfont
} def

% draw text fitted to its expected width
/alignedtext {			% width text
	/text exch def
	/width exch def
	gsave
		width 0 gt {
			[] 0 setdash
			text stringwidth pop width exch sub text length div 0 text ashow
		} if
	grestore
} def

/boxprim {				% xcorner ycorner xsize ysize
		4 2 roll
		moveto
		2 copy
		exch 0 rlineto
		0 exch rlineto
		pop neg 0 rlineto
		closepath
} bind def

/ellipse_path {
	/ry exch def
	/rx exch def
	/y exch def
	/x exch def
	matrix currentmatrix
	newpath
	x y translate
	rx ry scale
	0 0 1 0 360 arc
	setmatrix
} bind def

/endpage { showpage } bind def
/showpage { } def

/layercolorseq
	[	% layer color sequence - darkest to lightest
		[0 0 0]
		[.2 .8 .8]
		[.4 .8 .8]
		[.6 .8 .8]
		[.8 .8 .8]
	]
def

/layerlen layercolorseq length def

/setlayer {/maxlayer exch def /curlayer exch def
	layercolorseq curlayer 1 sub layerlen mod get
	aload pop sethsbcolor
	/nodecolor {nopcolor} def
	/edgecolor {nopcolor} def
	/graphcolor {nopcolor} def
} bind def

/onlayer { curlayer ne {invis} if } def

/onlayers {
	/myupper exch def
	/mylower exch def
	curlayer mylower lt
	curlayer myupper gt
	or
	{invis} if
} def

/curlayer 0 def

%%EndResource
%%EndProlog
%%BeginSetup
14 default-font-family set_font
1 setmiterlimit
% /arrowlength 10 def
% /arrowwidth 5 def

% make sure pdfmark is harmless for PS-interpreters other than Distiller
/pdfmark where {pop} {userdict /pdfmark /cleartomark load put} ifelse
% make '<<' and '>>' safe on PS Level 1 devices
/languagelevel where {pop languagelevel}{1} ifelse
2 lt {
    userdict (<<) cvn ([) cvn load put
    userdict (>>) cvn ([) cvn load put
} if

%%EndSetup
setupLatin1
%%Page: 1 1
%%PageBoundingBox: 192 90 420 702
%%PageOrientation: Landscape
0 0 1 beginpage
gsave
192 90 228 612 boxprim clip newpath
0.962264 0.962264 set_scale 90 rotate 97.5294 -432.5 translate
0.000 0.000 0.000 graphcolor
14 /Times-Roman set_font
258.5 7.9 moveto 111 (paradigm1_2.fst) alignedtext
% 0
gsave
2 setlinewidth
bold
0.000 0.000 0.000 nodecolor
18 135 18 18 ellipse_path stroke
0.000 0.000 0.000 nodecolor
14 /Times-Roman set_font
13.5 130.9 moveto 9 (0) alignedtext
grestore
% 1
gsave
1 setlinewidth
solid
0.000 0.000 0.000 nodecolor
108 206 18 18 ellipse_path stroke
0.000 0.000 0.000 nodecolor
14 /Times-Roman set_font
103.5 201.9 moveto 9 (1) alignedtext
grestore
% 0->1
gsave
1 setlinewidth
0.000 0.000 0.000 edgecolor
newpath 28 150 moveto
35 158 43 168 51 175 curveto
61 183 72 189 82 194 curveto
stroke
0.000 0.000 0.000 edgecolor
newpath 80.56 197.2 moveto
91 199 lineto
83.96 191.08 lineto
closepath fill
1 setlinewidth
solid
0.000 0.000 0.000 edgecolor
newpath 80.56 197.2 moveto
91 199 lineto
83.96 191.08 lineto
closepath stroke
0.000 0.000 0.000 edgecolor
14 /Times-Roman set_font
51 191.9 moveto 24 (A:A) alignedtext
grestore
% 4
gsave
1 setlinewidth
solid
0.000 0.000 0.000 nodecolor
181 160 18 18 ellipse_path stroke
0.000 0.000 0.000 nodecolor
14 /Times-Roman set_font
176.5 155.9 moveto 9 (4) alignedtext
grestore
% 0->4
gsave
1 setlinewidth
0.000 0.000 0.000 edgecolor
newpath 36 138 moveto
65 142 120 150 153 155 curveto
stroke
0.000 0.000 0.000 edgecolor
newpath 152.51 158.47 moveto
163 157 lineto
153.88 151.61 lineto
closepath fill
1 setlinewidth
solid
0.000 0.000 0.000 edgecolor
newpath 152.51 158.47 moveto
163 157 lineto
153.88 151.61 lineto
closepath stroke
0.000 0.000 0.000 edgecolor
14 /Times-Roman set_font
51.5 145.9 moveto 23 (e:A) alignedtext
grestore
% 6
gsave
1 setlinewidth
solid
0.000 0.000 0.000 nodecolor
181 108 18 18 ellipse_path stroke
0.000 0.000 0.000 nodecolor
14 /Times-Roman set_font
176.5 103.9 moveto 9 (6) alignedtext
grestore
% 0->6
gsave
1 setlinewidth
0.000 0.000 0.000 edgecolor
newpath 33 125 moveto
39 122 45 120 51 118 curveto
85 108 127 106 153 107 curveto
stroke
0.000 0.000 0.000 edgecolor
newpath 153 110.5 moveto
163 107 lineto
153 103.5 lineto
closepath fill
1 setlinewidth
solid
0.000 0.000 0.000 edgecolor
newpath 153 110.5 moveto
163 107 lineto
153 103.5 lineto
closepath stroke
0.000 0.000 0.000 edgecolor
14 /Times-Roman set_font
51.5 121.9 moveto 23 (e:A) alignedtext
grestore
% 8
gsave
1 setlinewidth
solid
0.000 0.000 0.000 nodecolor
108 59 18 18 ellipse_path stroke
0.000 0.000 0.000 nodecolor
14 /Times-Roman set_font
103.5 54.9 moveto 9 (8) alignedtext
grestore
% 0->8
gsave
1 setlinewidth
0.000 0.000 0.000 edgecolor
newpath 22 117 moveto
27 102 36 81 51 70 curveto
59 64 70 61 80 60 curveto
stroke
0.000 0.000 0.000 edgecolor
newpath 80.4 63.48 moveto
90 59 lineto
79.7 56.51 lineto
closepath fill
1 setlinewidth
solid
0.000 0.000 0.000 edgecolor
newpath 80.4 63.48 moveto
90 59 lineto
79.7 56.51 lineto
closepath stroke
0.000 0.000 0.000 edgecolor
14 /Times-Roman set_font
51.5 73.9 moveto 23 (o:A) alignedtext
grestore
% 2
gsave
1 setlinewidth
solid
0.000 0.000 0.000 nodecolor
368 211 18 18 ellipse_path stroke
0.000 0.000 0.000 nodecolor
14 /Times-Roman set_font
363.5 206.9 moveto 9 (2) alignedtext
grestore
% 1->2
gsave
1 setlinewidth
0.000 0.000 0.000 edgecolor
newpath 126 206 moveto
171 207 286 210 340 211 curveto
stroke
0.000 0.000 0.000 edgecolor
newpath 340 214.5 moveto
350 211 lineto
340 207.5 lineto
closepath fill
1 setlinewidth
solid
0.000 0.000 0.000 edgecolor
newpath 340 214.5 moveto
350 211 lineto
340 207.5 lineto
closepath stroke
0.000 0.000 0.000 edgecolor
14 /Times-Roman set_font
141 210.9 moveto 80 (<eps>:sing) alignedtext
grestore
% 5
gsave
1 setlinewidth
solid
0.000 0.000 0.000 nodecolor
368 160 18 18 ellipse_path stroke
0.000 0.000 0.000 nodecolor
14 /Times-Roman set_font
363.5 155.9 moveto 9 (5) alignedtext
grestore
% 4->5
gsave
1 setlinewidth
0.000 0.000 0.000 edgecolor
newpath 199 160 moveto
232 160 301 160 340 160 curveto
stroke
0.000 0.000 0.000 edgecolor
newpath 340 163.5 moveto
350 160 lineto
340 156.5 lineto
closepath fill
1 setlinewidth
solid
0.000 0.000 0.000 edgecolor
newpath 340 163.5 moveto
350 160 lineto
340 156.5 lineto
closepath stroke
0.000 0.000 0.000 edgecolor
14 /Times-Roman set_font
239.5 163.9 moveto 73 (<eps>:plu) alignedtext
grestore
% 7
gsave
1 setlinewidth
solid
0.000 0.000 0.000 nodecolor
453 107 18 18 ellipse_path stroke
0.000 0.000 0.000 nodecolor
14 /Times-Roman set_font
448.5 102.9 moveto 9 (7) alignedtext
grestore
% 6->7
gsave
1 setlinewidth
0.000 0.000 0.000 edgecolor
newpath 199 108 moveto
246 108 368 107 425 107 curveto
stroke
0.000 0.000 0.000 edgecolor
newpath 425 110.5 moveto
435 107 lineto
425 103.5 lineto
closepath fill
1 setlinewidth
solid
0.000 0.000 0.000 edgecolor
newpath 425 110.5 moveto
435 107 lineto
425 103.5 lineto
closepath stroke
0.000 0.000 0.000 edgecolor
14 /Times-Roman set_font
236 110.9 moveto 80 (<eps>:sing) alignedtext
grestore
% 9
gsave
1 setlinewidth
solid
0.000 0.000 0.000 nodecolor
276 51 18 18 ellipse_path stroke
0.000 0.000 0.000 nodecolor
14 /Times-Roman set_font
271.5 46.9 moveto 9 (9) alignedtext
grestore
% 8->9
gsave
1 setlinewidth
0.000 0.000 0.000 edgecolor
newpath 126 58 moveto
156 57 213 54 248 52 curveto
stroke
0.000 0.000 0.000 edgecolor
newpath 248 55.5 moveto
258 52 lineto
248 48.5 lineto
closepath fill
1 setlinewidth
solid
0.000 0.000 0.000 edgecolor
newpath 248 55.5 moveto
258 52 lineto
248 48.5 lineto
closepath stroke
0.000 0.000 0.000 edgecolor
14 /Times-Roman set_font
148.5 62.9 moveto 65 (m:<eps>) alignedtext
grestore
% 3
gsave
1 setlinewidth
solid
0.000 0.000 0.000 nodecolor
606 139 18 18 ellipse_path stroke
1 setlinewidth
solid
0.000 0.000 0.000 nodecolor
606 139 22 22 ellipse_path stroke
0.000 0.000 0.000 nodecolor
14 /Times-Roman set_font
601.5 134.9 moveto 9 (3) alignedtext
grestore
% 2->3
gsave
1 setlinewidth
0.000 0.000 0.000 edgecolor
newpath 386 209 moveto
422 204 505 190 569 163 curveto
573 161 576 160 580 158 curveto
stroke
0.000 0.000 0.000 edgecolor
newpath 582.1 160.8 moveto
588 152 lineto
577.9 155.2 lineto
closepath fill
1 setlinewidth
solid
0.000 0.000 0.000 edgecolor
newpath 582.1 160.8 moveto
588 152 lineto
577.9 155.2 lineto
closepath stroke
0.000 0.000 0.000 edgecolor
14 /Times-Roman set_font
420 205.9 moveto 66 (<eps>:dr) alignedtext
grestore
% 5->3
gsave
1 setlinewidth
0.000 0.000 0.000 edgecolor
newpath 386 160 moveto
422 159 502 156 569 147 curveto
571 147 572 146 574 146 curveto
stroke
0.000 0.000 0.000 edgecolor
newpath 574.88 149.39 moveto
584 144 lineto
573.51 142.53 lineto
closepath fill
1 setlinewidth
solid
0.000 0.000 0.000 edgecolor
newpath 574.88 149.39 moveto
584 144 lineto
573.51 142.53 lineto
closepath stroke
0.000 0.000 0.000 edgecolor
14 /Times-Roman set_font
420 160.9 moveto 66 (<eps>:dr) alignedtext
grestore
% 7->3
gsave
1 setlinewidth
0.000 0.000 0.000 edgecolor
newpath 471 110 moveto
494 114 535 122 569 130 curveto
571 130 573 131 575 131 curveto
stroke
0.000 0.000 0.000 edgecolor
newpath 574.51 134.47 moveto
585 133 lineto
575.88 127.61 lineto
closepath fill
1 setlinewidth
solid
0.000 0.000 0.000 edgecolor
newpath 574.51 134.47 moveto
585 133 lineto
575.88 127.61 lineto
closepath stroke
0.000 0.000 0.000 edgecolor
14 /Times-Roman set_font
501 133.9 moveto 68 (<eps>:ob) alignedtext
grestore
% 10
gsave
1 setlinewidth
solid
0.000 0.000 0.000 nodecolor
453 48 23.12 23.12 ellipse_path stroke
0.000 0.000 0.000 nodecolor
14 /Times-Roman set_font
444 43.9 moveto 18 (10) alignedtext
grestore
% 9->10
gsave
1 setlinewidth
0.000 0.000 0.000 edgecolor
newpath 294 51 moveto
323 50 382 49 420 48 curveto
stroke
0.000 0.000 0.000 edgecolor
newpath 420 51.5 moveto
430 48 lineto
420 44.5 lineto
closepath fill
1 setlinewidth
solid
0.000 0.000 0.000 edgecolor
newpath 420 51.5 moveto
430 48 lineto
420 44.5 lineto
closepath stroke
0.000 0.000 0.000 edgecolor
14 /Times-Roman set_font
331.5 54.9 moveto 73 (<eps>:plu) alignedtext
grestore
% 10->3
gsave
1 setlinewidth
0.000 0.000 0.000 edgecolor
newpath 476 53 moveto
501 60 541 73 569 94 curveto
576 99 583 105 588 112 curveto
stroke
0.000 0.000 0.000 edgecolor
newpath 585.2 114.1 moveto
594 120 lineto
590.8 109.9 lineto
closepath fill
1 setlinewidth
solid
0.000 0.000 0.000 edgecolor
newpath 585.2 114.1 moveto
594 120 lineto
590.8 109.9 lineto
closepath stroke
0.000 0.000 0.000 edgecolor
14 /Times-Roman set_font
501 97.9 moveto 68 (<eps>:ob) alignedtext
grestore
endpage
showpage
grestore
%%PageTrailer
%%EndPage: 1
%%Trailer
%%Pages: 1
%%BoundingBox: 192 90 420 702
end
restore
%%EOF
