%!PS-Adobe-3.0 EPSF-3.0
%%Creator: Graphviz version 2.20.2 (Tue Mar  2 21:46:26 UTC 2010)
%%For: (jayant) jayant,,,
%%Title: FSM
%%Pages: (atend)
%%BoundingBox: (atend)
%%EndComments
save
%%BeginProlog
/DotDict 200 dict def
DotDict begin

/setupLatin1 {
mark
/EncodingVector 256 array def
 EncodingVector 0

ISOLatin1Encoding 0 255 getinterval putinterval
EncodingVector 45 /hyphen put

% Set up ISO Latin 1 character encoding
/starnetISO {
        dup dup findfont dup length dict begin
        { 1 index /FID ne { def }{ pop pop } ifelse
        } forall
        /Encoding EncodingVector def
        currentdict end definefont
} def
/Times-Roman starnetISO def
/Times-Italic starnetISO def
/Times-Bold starnetISO def
/Times-BoldItalic starnetISO def
/Helvetica starnetISO def
/Helvetica-Oblique starnetISO def
/Helvetica-Bold starnetISO def
/Helvetica-BoldOblique starnetISO def
/Courier starnetISO def
/Courier-Oblique starnetISO def
/Courier-Bold starnetISO def
/Courier-BoldOblique starnetISO def
cleartomark
} bind def

%%BeginResource: procset graphviz 0 0
/coord-font-family /Times-Roman def
/default-font-family /Times-Roman def
/coordfont coord-font-family findfont 8 scalefont def

/InvScaleFactor 1.0 def
/set_scale {
       dup 1 exch div /InvScaleFactor exch def
       scale
} bind def

% styles
/solid { [] 0 setdash } bind def
/dashed { [9 InvScaleFactor mul dup ] 0 setdash } bind def
/dotted { [1 InvScaleFactor mul 6 InvScaleFactor mul] 0 setdash } bind def
/invis {/fill {newpath} def /stroke {newpath} def /show {pop newpath} def} bind def
/bold { 2 setlinewidth } bind def
/filled { } bind def
/unfilled { } bind def
/rounded { } bind def
/diagonals { } bind def

% hooks for setting color 
/nodecolor { sethsbcolor } bind def
/edgecolor { sethsbcolor } bind def
/graphcolor { sethsbcolor } bind def
/nopcolor {pop pop pop} bind def

/beginpage {	% i j npages
	/npages exch def
	/j exch def
	/i exch def
	/str 10 string def
	npages 1 gt {
		gsave
			coordfont setfont
			0 0 moveto
			(\() show i str cvs show (,) show j str cvs show (\)) show
		grestore
	} if
} bind def

/set_font {
	findfont exch
	scalefont setfont
} def

% draw text fitted to its expected width
/alignedtext {			% width text
	/text exch def
	/width exch def
	gsave
		width 0 gt {
			[] 0 setdash
			text stringwidth pop width exch sub text length div 0 text ashow
		} if
	grestore
} def

/boxprim {				% xcorner ycorner xsize ysize
		4 2 roll
		moveto
		2 copy
		exch 0 rlineto
		0 exch rlineto
		pop neg 0 rlineto
		closepath
} bind def

/ellipse_path {
	/ry exch def
	/rx exch def
	/y exch def
	/x exch def
	matrix currentmatrix
	newpath
	x y translate
	rx ry scale
	0 0 1 0 360 arc
	setmatrix
} bind def

/endpage { showpage } bind def
/showpage { } def

/layercolorseq
	[	% layer color sequence - darkest to lightest
		[0 0 0]
		[.2 .8 .8]
		[.4 .8 .8]
		[.6 .8 .8]
		[.8 .8 .8]
	]
def

/layerlen layercolorseq length def

/setlayer {/maxlayer exch def /curlayer exch def
	layercolorseq curlayer 1 sub layerlen mod get
	aload pop sethsbcolor
	/nodecolor {nopcolor} def
	/edgecolor {nopcolor} def
	/graphcolor {nopcolor} def
} bind def

/onlayer { curlayer ne {invis} if } def

/onlayers {
	/myupper exch def
	/mylower exch def
	curlayer mylower lt
	curlayer myupper gt
	or
	{invis} if
} def

/curlayer 0 def

%%EndResource
%%EndProlog
%%BeginSetup
14 default-font-family set_font
1 setmiterlimit
% /arrowlength 10 def
% /arrowwidth 5 def

% make sure pdfmark is harmless for PS-interpreters other than Distiller
/pdfmark where {pop} {userdict /pdfmark /cleartomark load put} ifelse
% make '<<' and '>>' safe on PS Level 1 devices
/languagelevel where {pop languagelevel}{1} ifelse
2 lt {
    userdict (<<) cvn ([) cvn load put
    userdict (>>) cvn ([) cvn load put
} if

%%EndSetup
setupLatin1
%%Page: 1 1
%%PageBoundingBox: 246 90 366 702
%%PageOrientation: Landscape
0 0 1 beginpage
gsave
246 90 120 612 boxprim clip newpath
0.478125 0.478125 set_scale 90 rotate 192.235 -762.5 translate
0.000 0.000 0.000 graphcolor
14 /Times-Roman set_font
605 7.9 moveto 62 (para1.fst) alignedtext
% 0
gsave
2 setlinewidth
bold
0.000 0.000 0.000 nodecolor
18 146 18 18 ellipse_path stroke
0.000 0.000 0.000 nodecolor
14 /Times-Roman set_font
13.5 141.9 moveto 9 (0) alignedtext
grestore
% 1
gsave
1 setlinewidth
solid
0.000 0.000 0.000 nodecolor
106 172 18 18 ellipse_path stroke
0.000 0.000 0.000 nodecolor
14 /Times-Roman set_font
101.5 167.9 moveto 9 (1) alignedtext
grestore
% 0->1
gsave
1 setlinewidth
0.000 0.000 0.000 edgecolor
newpath 35 151 moveto
48 155 65 160 79 164 curveto
stroke
0.000 0.000 0.000 edgecolor
newpath 78.42 167.48 moveto
89 167 lineto
80.43 160.77 lineto
closepath fill
1 setlinewidth
solid
0.000 0.000 0.000 edgecolor
newpath 78.42 167.48 moveto
89 167 lineto
80.43 160.77 lineto
closepath stroke
0.000 0.000 0.000 edgecolor
14 /Times-Roman set_font
56 163.9 moveto 12 (l:l) alignedtext
grestore
% 6
gsave
1 setlinewidth
solid
0.000 0.000 0.000 nodecolor
106 118 18 18 ellipse_path stroke
0.000 0.000 0.000 nodecolor
14 /Times-Roman set_font
101.5 113.9 moveto 9 (6) alignedtext
grestore
% 0->6
gsave
1 setlinewidth
0.000 0.000 0.000 edgecolor
newpath 35 139 moveto
40 137 46 135 51 134 curveto
60 131 70 128 78 126 curveto
stroke
0.000 0.000 0.000 edgecolor
newpath 79.43 129.23 moveto
88 123 lineto
77.42 122.52 lineto
closepath fill
1 setlinewidth
solid
0.000 0.000 0.000 edgecolor
newpath 79.43 129.23 moveto
88 123 lineto
77.42 122.52 lineto
closepath stroke
0.000 0.000 0.000 edgecolor
14 /Times-Roman set_font
51.5 137.9 moveto 21 (b:b) alignedtext
grestore
% 2
gsave
1 setlinewidth
solid
0.000 0.000 0.000 nodecolor
194 172 18 18 ellipse_path stroke
0.000 0.000 0.000 nodecolor
14 /Times-Roman set_font
189.5 167.9 moveto 9 (2) alignedtext
grestore
% 1->2
gsave
1 setlinewidth
0.000 0.000 0.000 edgecolor
newpath 124 172 moveto
136 172 152 172 166 172 curveto
stroke
0.000 0.000 0.000 edgecolor
newpath 166 175.5 moveto
176 172 lineto
166 168.5 lineto
closepath fill
1 setlinewidth
solid
0.000 0.000 0.000 edgecolor
newpath 166 175.5 moveto
176 172 lineto
166 168.5 lineto
closepath stroke
0.000 0.000 0.000 edgecolor
14 /Times-Roman set_font
139.5 175.9 moveto 21 (a:a) alignedtext
grestore
% 7
gsave
1 setlinewidth
solid
0.000 0.000 0.000 nodecolor
194 118 18 18 ellipse_path stroke
0.000 0.000 0.000 nodecolor
14 /Times-Roman set_font
189.5 113.9 moveto 9 (7) alignedtext
grestore
% 6->7
gsave
1 setlinewidth
0.000 0.000 0.000 edgecolor
newpath 124 118 moveto
136 118 152 118 166 118 curveto
stroke
0.000 0.000 0.000 edgecolor
newpath 166 121.5 moveto
176 118 lineto
166 114.5 lineto
closepath fill
1 setlinewidth
solid
0.000 0.000 0.000 edgecolor
newpath 166 121.5 moveto
176 118 lineto
166 114.5 lineto
closepath stroke
0.000 0.000 0.000 edgecolor
14 /Times-Roman set_font
139.5 121.9 moveto 21 (a:a) alignedtext
grestore
% 3
gsave
1 setlinewidth
solid
0.000 0.000 0.000 nodecolor
288 172 18 18 ellipse_path stroke
0.000 0.000 0.000 nodecolor
14 /Times-Roman set_font
283.5 167.9 moveto 9 (3) alignedtext
grestore
% 2->3
gsave
1 setlinewidth
0.000 0.000 0.000 edgecolor
newpath 212 172 moveto
225 172 244 172 260 172 curveto
stroke
0.000 0.000 0.000 edgecolor
newpath 260 175.5 moveto
270 172 lineto
260 168.5 lineto
closepath fill
1 setlinewidth
solid
0.000 0.000 0.000 edgecolor
newpath 260 175.5 moveto
270 172 lineto
260 168.5 lineto
closepath stroke
0.000 0.000 0.000 edgecolor
14 /Times-Roman set_font
227.5 175.9 moveto 27 (D:D) alignedtext
grestore
% 4
gsave
1 setlinewidth
solid
0.000 0.000 0.000 nodecolor
376 172 18 18 ellipse_path stroke
0.000 0.000 0.000 nodecolor
14 /Times-Roman set_font
371.5 167.9 moveto 9 (4) alignedtext
grestore
% 3->4
gsave
1 setlinewidth
0.000 0.000 0.000 edgecolor
newpath 306 172 moveto
318 172 334 172 348 172 curveto
stroke
0.000 0.000 0.000 edgecolor
newpath 348 175.5 moveto
358 172 lineto
348 168.5 lineto
closepath fill
1 setlinewidth
solid
0.000 0.000 0.000 edgecolor
newpath 348 175.5 moveto
358 172 lineto
348 168.5 lineto
closepath stroke
0.000 0.000 0.000 edgecolor
14 /Times-Roman set_font
321.5 175.9 moveto 21 (a:a) alignedtext
grestore
% 5
gsave
1 setlinewidth
solid
0.000 0.000 0.000 nodecolor
466 146 18 18 ellipse_path stroke
0.000 0.000 0.000 nodecolor
14 /Times-Roman set_font
461.5 141.9 moveto 9 (5) alignedtext
grestore
% 4->5
gsave
1 setlinewidth
0.000 0.000 0.000 edgecolor
newpath 393 167 moveto
406 163 424 158 439 154 curveto
stroke
0.000 0.000 0.000 edgecolor
newpath 440.43 157.23 moveto
449 151 lineto
438.42 150.52 lineto
closepath fill
1 setlinewidth
solid
0.000 0.000 0.000 edgecolor
newpath 440.43 157.23 moveto
449 151 lineto
438.42 150.52 lineto
closepath stroke
0.000 0.000 0.000 edgecolor
14 /Times-Roman set_font
410.5 164.9 moveto 21 (k:k) alignedtext
grestore
% 10
gsave
1 setlinewidth
solid
0.000 0.000 0.000 nodecolor
637 146 23.12 23.12 ellipse_path stroke
0.000 0.000 0.000 nodecolor
14 /Times-Roman set_font
628 141.9 moveto 18 (10) alignedtext
grestore
% 5->10
gsave
1 setlinewidth
0.000 0.000 0.000 edgecolor
newpath 484 146 moveto
512 146 568 146 604 146 curveto
stroke
0.000 0.000 0.000 edgecolor
newpath 604 149.5 moveto
614 146 lineto
604 142.5 lineto
closepath fill
1 setlinewidth
solid
0.000 0.000 0.000 edgecolor
newpath 604 149.5 moveto
614 146 lineto
604 142.5 lineto
closepath stroke
0.000 0.000 0.000 edgecolor
14 /Times-Roman set_font
499.5 149.9 moveto 99 (<eps>:<eps>) alignedtext
grestore
% 11
gsave
1 setlinewidth
solid
0.000 0.000 0.000 nodecolor
737 217 23.12 23.12 ellipse_path stroke
0.000 0.000 0.000 nodecolor
14 /Times-Roman set_font
728 212.9 moveto 18 (11) alignedtext
grestore
% 10->11
gsave
1 setlinewidth
0.000 0.000 0.000 edgecolor
newpath 652 164 moveto
659 171 667 179 675 185 curveto
685 192 696 198 707 204 curveto
stroke
0.000 0.000 0.000 edgecolor
newpath 705.44 207.14 moveto
716 208 lineto
708.28 200.74 lineto
closepath fill
1 setlinewidth
solid
0.000 0.000 0.000 edgecolor
newpath 705.44 207.14 moveto
716 208 lineto
708.28 200.74 lineto
closepath stroke
0.000 0.000 0.000 edgecolor
14 /Times-Roman set_font
675 201.9 moveto 24 (A:A) alignedtext
grestore
% 14
gsave
1 setlinewidth
solid
0.000 0.000 0.000 nodecolor
815 167 23.12 23.12 ellipse_path stroke
0.000 0.000 0.000 nodecolor
14 /Times-Roman set_font
806 162.9 moveto 18 (14) alignedtext
grestore
% 10->14
gsave
1 setlinewidth
0.000 0.000 0.000 edgecolor
newpath 660 149 moveto
691 153 746 159 782 163 curveto
stroke
0.000 0.000 0.000 edgecolor
newpath 781.7 166.49 moveto
792 164 lineto
782.4 159.52 lineto
closepath fill
1 setlinewidth
solid
0.000 0.000 0.000 edgecolor
newpath 781.7 166.49 moveto
792 164 lineto
782.4 159.52 lineto
closepath stroke
0.000 0.000 0.000 edgecolor
14 /Times-Roman set_font
675.5 155.9 moveto 23 (e:A) alignedtext
grestore
% 16
gsave
1 setlinewidth
solid
0.000 0.000 0.000 nodecolor
815 114 23.12 23.12 ellipse_path stroke
0.000 0.000 0.000 nodecolor
14 /Times-Roman set_font
806 109.9 moveto 18 (16) alignedtext
grestore
% 10->16
gsave
1 setlinewidth
0.000 0.000 0.000 edgecolor
newpath 657 135 moveto
663 132 669 130 675 128 curveto
711 118 753 116 782 114 curveto
stroke
0.000 0.000 0.000 edgecolor
newpath 782 117.5 moveto
792 114 lineto
782 110.5 lineto
closepath fill
1 setlinewidth
solid
0.000 0.000 0.000 edgecolor
newpath 782 117.5 moveto
792 114 lineto
782 110.5 lineto
closepath stroke
0.000 0.000 0.000 edgecolor
14 /Times-Roman set_font
675.5 131.9 moveto 23 (e:A) alignedtext
grestore
% 18
gsave
1 setlinewidth
solid
0.000 0.000 0.000 nodecolor
737 66 23.12 23.12 ellipse_path stroke
0.000 0.000 0.000 nodecolor
14 /Times-Roman set_font
728 61.9 moveto 18 (18) alignedtext
grestore
% 10->18
gsave
1 setlinewidth
0.000 0.000 0.000 edgecolor
newpath 645 124 moveto
651 110 661 92 675 81 curveto
683 75 694 71 704 69 curveto
stroke
0.000 0.000 0.000 edgecolor
newpath 704.4 72.48 moveto
714 68 lineto
703.7 65.51 lineto
closepath fill
1 setlinewidth
solid
0.000 0.000 0.000 edgecolor
newpath 704.4 72.48 moveto
714 68 lineto
703.7 65.51 lineto
closepath stroke
0.000 0.000 0.000 edgecolor
14 /Times-Roman set_font
675.5 88.9 moveto 23 (o:A) alignedtext
grestore
% 8
gsave
1 setlinewidth
solid
0.000 0.000 0.000 nodecolor
288 118 18 18 ellipse_path stroke
0.000 0.000 0.000 nodecolor
14 /Times-Roman set_font
283.5 113.9 moveto 9 (8) alignedtext
grestore
% 7->8
gsave
1 setlinewidth
0.000 0.000 0.000 edgecolor
newpath 212 118 moveto
225 118 244 118 260 118 curveto
stroke
0.000 0.000 0.000 edgecolor
newpath 260 121.5 moveto
270 118 lineto
260 114.5 lineto
closepath fill
1 setlinewidth
solid
0.000 0.000 0.000 edgecolor
newpath 260 121.5 moveto
270 118 lineto
260 114.5 lineto
closepath stroke
0.000 0.000 0.000 edgecolor
14 /Times-Roman set_font
232 121.9 moveto 18 (c:c) alignedtext
grestore
% 9
gsave
1 setlinewidth
solid
0.000 0.000 0.000 nodecolor
376 118 18 18 ellipse_path stroke
0.000 0.000 0.000 nodecolor
14 /Times-Roman set_font
371.5 113.9 moveto 9 (9) alignedtext
grestore
% 8->9
gsave
1 setlinewidth
0.000 0.000 0.000 edgecolor
newpath 306 118 moveto
318 118 334 118 348 118 curveto
stroke
0.000 0.000 0.000 edgecolor
newpath 348 121.5 moveto
358 118 lineto
348 114.5 lineto
closepath fill
1 setlinewidth
solid
0.000 0.000 0.000 edgecolor
newpath 348 121.5 moveto
358 118 lineto
348 114.5 lineto
closepath stroke
0.000 0.000 0.000 edgecolor
14 /Times-Roman set_font
323 121.9 moveto 18 (c:c) alignedtext
grestore
% 9->5
gsave
1 setlinewidth
0.000 0.000 0.000 edgecolor
newpath 394 122 moveto
405 125 420 129 433 134 curveto
435 134 437 135 439 136 curveto
stroke
0.000 0.000 0.000 edgecolor
newpath 438.42 139.48 moveto
449 139 lineto
440.43 132.77 lineto
closepath fill
1 setlinewidth
solid
0.000 0.000 0.000 edgecolor
newpath 438.42 139.48 moveto
449 139 lineto
440.43 132.77 lineto
closepath stroke
0.000 0.000 0.000 edgecolor
14 /Times-Roman set_font
409.5 137.9 moveto 23 (h:h) alignedtext
grestore
% 12
gsave
1 setlinewidth
solid
0.000 0.000 0.000 nodecolor
1002 222 23.12 23.12 ellipse_path stroke
0.000 0.000 0.000 nodecolor
14 /Times-Roman set_font
993 217.9 moveto 18 (12) alignedtext
grestore
% 11->12
gsave
1 setlinewidth
0.000 0.000 0.000 edgecolor
newpath 760 217 moveto
808 219 915 221 969 222 curveto
stroke
0.000 0.000 0.000 edgecolor
newpath 969 225.5 moveto
979 222 lineto
969 218.5 lineto
closepath fill
1 setlinewidth
solid
0.000 0.000 0.000 edgecolor
newpath 969 225.5 moveto
979 222 lineto
969 218.5 lineto
closepath stroke
0.000 0.000 0.000 edgecolor
14 /Times-Roman set_font
775 221.9 moveto 80 (<eps>:sing) alignedtext
grestore
% 15
gsave
1 setlinewidth
solid
0.000 0.000 0.000 nodecolor
1002 170 23.12 23.12 ellipse_path stroke
0.000 0.000 0.000 nodecolor
14 /Times-Roman set_font
993 165.9 moveto 18 (15) alignedtext
grestore
% 14->15
gsave
1 setlinewidth
0.000 0.000 0.000 edgecolor
newpath 838 167 moveto
871 168 931 169 969 170 curveto
stroke
0.000 0.000 0.000 edgecolor
newpath 969 173.5 moveto
979 170 lineto
969 166.5 lineto
closepath fill
1 setlinewidth
solid
0.000 0.000 0.000 edgecolor
newpath 969 173.5 moveto
979 170 lineto
969 166.5 lineto
closepath stroke
0.000 0.000 0.000 edgecolor
14 /Times-Roman set_font
873.5 171.9 moveto 73 (<eps>:plu) alignedtext
grestore
% 17
gsave
1 setlinewidth
solid
0.000 0.000 0.000 nodecolor
1087 112 23.12 23.12 ellipse_path stroke
0.000 0.000 0.000 nodecolor
14 /Times-Roman set_font
1078 107.9 moveto 18 (17) alignedtext
grestore
% 16->17
gsave
1 setlinewidth
0.000 0.000 0.000 edgecolor
newpath 838 114 moveto
887 113 998 112 1054 112 curveto
stroke
0.000 0.000 0.000 edgecolor
newpath 1054 115.5 moveto
1064 112 lineto
1054 108.5 lineto
closepath fill
1 setlinewidth
solid
0.000 0.000 0.000 edgecolor
newpath 1054 115.5 moveto
1064 112 lineto
1054 108.5 lineto
closepath stroke
0.000 0.000 0.000 edgecolor
14 /Times-Roman set_font
870 117.9 moveto 80 (<eps>:sing) alignedtext
grestore
% 19
gsave
1 setlinewidth
solid
0.000 0.000 0.000 nodecolor
910 52 23.12 23.12 ellipse_path stroke
0.000 0.000 0.000 nodecolor
14 /Times-Roman set_font
901 47.9 moveto 18 (19) alignedtext
grestore
% 18->19
gsave
1 setlinewidth
0.000 0.000 0.000 edgecolor
newpath 760 64 moveto
790 61 842 57 877 55 curveto
stroke
0.000 0.000 0.000 edgecolor
newpath 877.4 58.48 moveto
887 54 lineto
876.7 51.51 lineto
closepath fill
1 setlinewidth
solid
0.000 0.000 0.000 edgecolor
newpath 877.4 58.48 moveto
887 54 lineto
876.7 51.51 lineto
closepath stroke
0.000 0.000 0.000 edgecolor
14 /Times-Roman set_font
782.5 68.9 moveto 65 (m:<eps>) alignedtext
grestore
% 13
gsave
1 setlinewidth
solid
0.000 0.000 0.000 nodecolor
1245 148 23.2 23.2 ellipse_path stroke
1 setlinewidth
solid
0.000 0.000 0.000 nodecolor
1245 148 27.12 27.12 ellipse_path stroke
0.000 0.000 0.000 nodecolor
14 /Times-Roman set_font
1236 143.9 moveto 18 (13) alignedtext
grestore
% 12->13
gsave
1 setlinewidth
0.000 0.000 0.000 edgecolor
newpath 1025 219 moveto
1063 212 1141 198 1203 173 curveto
1207 171 1210 170 1213 168 curveto
stroke
0.000 0.000 0.000 edgecolor
newpath 1214.96 170.92 moveto
1222 163 lineto
1211.56 164.8 lineto
closepath fill
1 setlinewidth
solid
0.000 0.000 0.000 edgecolor
newpath 1214.96 170.92 moveto
1222 163 lineto
1211.56 164.8 lineto
closepath stroke
0.000 0.000 0.000 edgecolor
14 /Times-Roman set_font
1054 216.9 moveto 66 (<eps>:dr) alignedtext
grestore
% 15->13
gsave
1 setlinewidth
0.000 0.000 0.000 edgecolor
newpath 1025 170 moveto
1063 169 1139 166 1203 157 curveto
1205 157 1206 156 1208 156 curveto
stroke
0.000 0.000 0.000 edgecolor
newpath 1208.88 159.39 moveto
1218 154 lineto
1207.51 152.53 lineto
closepath fill
1 setlinewidth
solid
0.000 0.000 0.000 edgecolor
newpath 1208.88 159.39 moveto
1218 154 lineto
1207.51 152.53 lineto
closepath stroke
0.000 0.000 0.000 edgecolor
14 /Times-Roman set_font
1054 170.9 moveto 66 (<eps>:dr) alignedtext
grestore
% 17->13
gsave
1 setlinewidth
0.000 0.000 0.000 edgecolor
newpath 1110 117 moveto
1135 123 1178 133 1209 140 curveto
stroke
0.000 0.000 0.000 edgecolor
newpath 1208.51 143.47 moveto
1219 142 lineto
1209.88 136.61 lineto
closepath fill
1 setlinewidth
solid
0.000 0.000 0.000 edgecolor
newpath 1208.51 143.47 moveto
1219 142 lineto
1209.88 136.61 lineto
closepath stroke
0.000 0.000 0.000 edgecolor
14 /Times-Roman set_font
1135 139.9 moveto 68 (<eps>:ob) alignedtext
grestore
% 20
gsave
1 setlinewidth
solid
0.000 0.000 0.000 nodecolor
1087 48 23.12 23.12 ellipse_path stroke
0.000 0.000 0.000 nodecolor
14 /Times-Roman set_font
1078 43.9 moveto 18 (20) alignedtext
grestore
% 19->20
gsave
1 setlinewidth
0.000 0.000 0.000 edgecolor
newpath 933 51 moveto
964 50 1018 49 1054 48 curveto
stroke
0.000 0.000 0.000 edgecolor
newpath 1054 51.5 moveto
1064 48 lineto
1054 44.5 lineto
closepath fill
1 setlinewidth
solid
0.000 0.000 0.000 edgecolor
newpath 1054 51.5 moveto
1064 48 lineto
1054 44.5 lineto
closepath stroke
0.000 0.000 0.000 edgecolor
14 /Times-Roman set_font
965.5 56.9 moveto 73 (<eps>:plu) alignedtext
grestore
% 20->13
gsave
1 setlinewidth
0.000 0.000 0.000 edgecolor
newpath 1109 55 moveto
1134 64 1174 80 1203 101 curveto
1210 106 1217 112 1222 118 curveto
stroke
0.000 0.000 0.000 edgecolor
newpath 1219.78 120.78 moveto
1229 126 lineto
1225.05 116.17 lineto
closepath fill
1 setlinewidth
solid
0.000 0.000 0.000 edgecolor
newpath 1219.78 120.78 moveto
1229 126 lineto
1225.05 116.17 lineto
closepath stroke
0.000 0.000 0.000 edgecolor
14 /Times-Roman set_font
1135 105.9 moveto 68 (<eps>:ob) alignedtext
grestore
endpage
showpage
grestore
%%PageTrailer
%%EndPage: 1
%%Trailer
%%Pages: 1
%%BoundingBox: 246 90 366 702
end
restore
%%EOF
